<?xml version="1.0" encoding="UTF-8" standalone="no"?>
<!-- Created with Inkscape (http://www.inkscape.org/) -->

<svg
   xmlns:dc="http://purl.org/dc/elements/1.1/"
   xmlns:cc="http://creativecommons.org/ns#"
   xmlns:rdf="http://www.w3.org/1999/02/22-rdf-syntax-ns#"
   xmlns:svg="http://www.w3.org/2000/svg"
   xmlns="http://www.w3.org/2000/svg"
   xmlns:sodipodi="http://sodipodi.sourceforge.net/DTD/sodipodi-0.dtd"
   xmlns:inkscape="http://www.inkscape.org/namespaces/inkscape"
   width="800"
   height="600"
   id="svg2"
   version="1.1"
   inkscape:version="0.48.4 r9939"
   sodipodi:docname="prvind.svg">
  <defs
     id="defs4">
    <marker
       inkscape:stockid="Arrow2Lend"
       orient="auto"
       refY="0.0"
       refX="0.0"
       id="Arrow2Lend"
       style="overflow:visible;">
      <path
         id="path3996"
         style="fill-rule:evenodd;stroke-width:0.62500000;stroke-linejoin:round;"
         d="M 8.7185878,4.0337352 L -2.2072895,0.016013256 L 8.7185884,-4.0017078 C 6.9730900,-1.6296469 6.9831476,1.6157441 8.7185878,4.0337352 z "
         transform="scale(1.1) rotate(180) translate(1,0)" />
    </marker>
    <marker
       inkscape:stockid="Arrow1Lend"
       orient="auto"
       refY="0.0"
       refX="0.0"
       id="Arrow1Lend"
       style="overflow:visible;">
      <path
         id="path3978"
         d="M 0.0,0.0 L 5.0,-5.0 L -12.5,0.0 L 5.0,5.0 L 0.0,0.0 z "
         style="fill-rule:evenodd;stroke:#000000;stroke-width:1.0pt;"
         transform="scale(0.8) rotate(180) translate(12.5,0)" />
    </marker>
    <marker
       inkscape:stockid="Arrow1Lend"
       orient="auto"
       refY="0"
       refX="0"
       id="Arrow1Lend-4"
       style="overflow:visible">
      <path
         inkscape:connector-curvature="0"
         id="path3978-1"
         d="M 0,0 5,-5 -12.5,0 5,5 0,0 z"
         style="fill-rule:evenodd;stroke:#000000;stroke-width:1pt"
         transform="matrix(-0.8,0,0,-0.8,-10,0)" />
    </marker>
    <marker
       inkscape:stockid="Arrow1Lend"
       orient="auto"
       refY="0"
       refX="0"
       id="Arrow1Lend-7"
       style="overflow:visible">
      <path
         inkscape:connector-curvature="0"
         id="path3978-3"
         d="M 0,0 5,-5 -12.5,0 5,5 0,0 z"
         style="fill-rule:evenodd;stroke:#000000;stroke-width:1pt"
         transform="matrix(-0.8,0,0,-0.8,-10,0)" />
    </marker>
  </defs>
  <sodipodi:namedview
     id="base"
     pagecolor="#ffffff"
     bordercolor="#666666"
     borderopacity="1.0"
     inkscape:pageopacity="0.0"
     inkscape:pageshadow="2"
     inkscape:zoom="1.2881279"
     inkscape:cx="411.58277"
     inkscape:cy="324.10208"
     inkscape:document-units="px"
     inkscape:current-layer="layer1"
     showgrid="false"
     inkscape:window-width="1920"
     inkscape:window-height="1004"
     inkscape:window-x="0"
     inkscape:window-y="27"
     inkscape:window-maximized="1" />
  <metadata
     id="metadata7">
    <rdf:RDF>
      <cc:Work
         rdf:about="">
        <dc:format>image/svg+xml</dc:format>
        <dc:type
           rdf:resource="http://purl.org/dc/dcmitype/StillImage" />
        <dc:title />
      </cc:Work>
    </rdf:RDF>
  </metadata>
  <g
     inkscape:label="Calque 1"
     inkscape:groupmode="layer"
     id="layer1"
     transform="translate(0,-452.36218)">
    <rect
       style="fill:#cccccc;stroke:#000000;stroke-width:2.39900016999999988;stroke-linecap:round;stroke-linejoin:round;stroke-miterlimit:4;stroke-opacity:1;stroke-dasharray:none"
       id="rect2985"
       width="197.601"
       height="497.60101"
       x="1.1995001"
       y="503.56168"
       rx="2.9146712"
       ry="1.7539778" />
    <rect
       style="fill:#ff0000;stroke:#000000;stroke-width:2.39900041000000019;stroke-linecap:round;stroke-linejoin:round;stroke-miterlimit:4;stroke-opacity:1;stroke-dasharray:none"
       id="rect2985-9"
       width="197.601"
       height="497.60101"
       x="601.19952"
       y="503.56168"
       rx="2.9146714"
       ry="1.7539779" />
    <text
       xml:space="preserve"
       style="font-size:40px;font-style:normal;font-weight:normal;line-height:125%;letter-spacing:0px;word-spacing:0px;fill:#000000;fill-opacity:1;stroke:none;font-family:Sans"
       x="716.54382"
       y="542.31964"
       id="text3013"
       sodipodi:linespacing="125%"><tspan
         sodipodi:role="line"
         id="tspan3015"
         x="716.54382"
         y="542.31964"
         style="font-size:40px">Adv</tspan></text>
    <text
       xml:space="preserve"
       style="font-size:40px;font-style:normal;font-weight:normal;line-height:125%;letter-spacing:0px;word-spacing:0px;fill:#000000;fill-opacity:1;stroke:none;font-family:Sans"
       x="3.1052785"
       y="543.09595"
       id="text3017"
       sodipodi:linespacing="125%"><tspan
         sodipodi:role="line"
         id="tspan3019"
         x="3.1052785"
         y="543.09595"
         style="font-size:40px">PrvInd</tspan></text>
    <path
       style="fill:none;stroke:#000000;stroke-width:1px;stroke-linecap:butt;stroke-linejoin:miter;stroke-opacity:1;marker-start:none;marker-end:url(#Arrow1Lend)"
       d="m 600,578.36218 c -171.56682,-39.59234 -233.0911,-39.59234 -400,0"
       id="path3021"
       inkscape:connector-curvature="0"
       sodipodi:nodetypes="cc" />
    <path
       style="fill:none;stroke:#000000;stroke-width:1.01405573px;stroke-linecap:butt;stroke-linejoin:miter;stroke-opacity:1;marker-start:none;marker-end:url(#Arrow1Lend)"
       d="m 199.8204,852.2818 c 171.5608,-40.71459 233.08293,-40.71459 399.98596,0"
       id="path3021-6"
       inkscape:connector-curvature="0"
       sodipodi:nodetypes="cc" />
    <path
       style="fill:none;stroke:#000000;stroke-width:1px;stroke-linecap:butt;stroke-linejoin:miter;stroke-opacity:1;marker-start:none;marker-end:url(#Arrow1Lend)"
       d="m 599.47607,971.78572 c -171.56682,-39.59234 -233.0911,-39.59235 -400,0"
       id="path3021-8"
       inkscape:connector-curvature="0"
       sodipodi:nodetypes="cc" />
    <text
       xml:space="preserve"
       style="font-size:40px;font-style:normal;font-weight:normal;line-height:125%;letter-spacing:0px;word-spacing:0px;fill:#000000;fill-opacity:1;stroke:none;font-family:Sans"
       x="10.09217"
       y="612.96478"
       id="text4845"
       sodipodi:linespacing="125%"><tspan
         sodipodi:role="line"
         id="tspan4847"
         x="10.09217"
         y="612.96478"
         style="font-size:32px">c &lt;- {0, 1}</tspan></text>
    <text
       xml:space="preserve"
       style="font-size:40px;font-style:normal;font-weight:normal;line-height:125%;letter-spacing:0px;word-spacing:0px;fill:#000000;fill-opacity:1;stroke:none;font-family:Sans"
       x="0.97411966"
       y="697.75708"
       id="text4845-9"
       sodipodi:linespacing="125%"><tspan
         sodipodi:role="line"
         id="tspan4847-1"
         x="0.97411966"
         y="697.75708"
         style="font-size:32px">(F, K<tspan
   style="font-size:65.00091553%;baseline-shift:sub"
   id="tspan3035">i</tspan>, K<tspan
   style="font-size:65.00091553%;baseline-shift:sub"
   id="tspan3033">o</tspan>) &lt;-</tspan><tspan
         sodipodi:role="line"
         x="0.97411966"
         y="737.75708"
         style="font-size:32px"
         id="tspan3020">   garble(f<tspan
   style="font-size:32px;baseline-shift:sub"
   id="tspan4870">c</tspan>)</tspan></text>
    <text
       xml:space="preserve"
       style="font-size:40px;font-style:normal;font-weight:normal;line-height:125%;letter-spacing:0px;word-spacing:0px;fill:#000000;fill-opacity:1;stroke:none;font-family:Sans"
       x="10.01088"
       y="812.89465"
       id="text4845-9-8"
       sodipodi:linespacing="125%"><tspan
         sodipodi:role="line"
         id="tspan4847-1-2"
         x="10.01088"
         y="812.89465"
         style="font-size:32px">X &lt;-</tspan><tspan
         sodipodi:role="line"
         x="10.01088"
         y="852.89465"
         style="font-size:32px"
         id="tspan3023">  enc(K<tspan
   style="font-size:65.00091553%;baseline-shift:sub"
   id="tspan3037">i</tspan>, x<tspan
   style="font-size:32px;baseline-shift:sub"
   id="tspan4896">c</tspan>)</tspan></text>
    <text
       xml:space="preserve"
       style="font-size:40px;font-style:normal;font-weight:normal;line-height:125%;letter-spacing:0px;word-spacing:0px;fill:#000000;fill-opacity:1;stroke:none;font-family:Sans"
       x="327.99185"
       y="800.26599"
       id="text4833-0"
       sodipodi:linespacing="125%"><tspan
         sodipodi:role="line"
         id="tspan4835-5"
         x="327.99185"
         y="800.26599">F, X, K<tspan
   style="font-size:65.00091553%;baseline-shift:sub"
   id="tspan3039">o</tspan></tspan></text>
    <text
       xml:space="preserve"
       style="font-size:40px;font-style:normal;font-weight:normal;line-height:125%;letter-spacing:0px;word-spacing:0px;fill:#000000;fill-opacity:1;stroke:none;font-family:Sans"
       x="382.52023"
       y="929.17255"
       id="text4833-0-5"
       sodipodi:linespacing="125%"><tspan
         sodipodi:role="line"
         id="tspan4835-5-8"
         x="382.52023"
         y="929.17255">e</tspan></text>
    <text
       xml:space="preserve"
       style="font-size:40px;font-style:normal;font-weight:normal;line-height:125%;letter-spacing:0px;word-spacing:0px;fill:#000000;fill-opacity:1;stroke:none;font-family:Sans"
       x="322.48715"
       y="1020.5031"
       id="text4833-0-5-3"
       sodipodi:linespacing="125%"><tspan
         sodipodi:role="line"
         id="tspan4835-5-8-4"
         x="322.48715"
         y="1020.5031">e == c ?</tspan></text>
    <text
       xml:space="preserve"
       style="font-size:40px;font-style:normal;font-weight:normal;line-height:125%;letter-spacing:0px;word-spacing:0px;fill:#000000;fill-opacity:1;stroke:none;font-family:Sans"
       x="694.18451"
       y="686.85791"
       id="text4833-1"
       sodipodi:linespacing="125%"><tspan
         sodipodi:role="line"
         id="tspan4835-7"
         x="694.18451"
         y="686.85791"
         style="font-size:28px;text-align:center;text-anchor:middle">f<tspan
   style="font-size:65.00091553%;text-align:center;text-anchor:middle;baseline-shift:sub"
   id="tspan3093">0</tspan> et f<tspan
   style="font-size:65.00091553%;text-align:center;text-anchor:middle;baseline-shift:sub"
   id="tspan3101">1</tspan> ont</tspan><tspan
         sodipodi:role="line"
         x="694.18451"
         y="721.85791"
         style="font-size:28px;text-align:center;text-anchor:middle"
         id="tspan3140">la même</tspan><tspan
         sodipodi:role="line"
         x="694.18451"
         y="756.85791"
         style="font-size:28px;text-align:center;text-anchor:middle"
         id="tspan3146">topologie</tspan></text>
    <text
       xml:space="preserve"
       style="font-size:40px;font-style:normal;font-weight:normal;line-height:125%;letter-spacing:0px;word-spacing:0px;fill:#000000;fill-opacity:1;stroke:none;font-family:Sans"
       x="611.72272"
       y="625.33057"
       id="text4833-1-9"
       sodipodi:linespacing="125%"><tspan
         sodipodi:role="line"
         id="tspan4835-7-4"
         x="611.72272"
         y="625.33057"
         style="font-size:28px">f<tspan
   style="font-size:65.00091553%;baseline-shift:sub"
   id="tspan3093-7">0</tspan>(x<tspan
   style="font-size:65.00091553%;baseline-shift:sub"
   id="tspan3097-7">0</tspan>)=f<tspan
   style="font-size:65.00091553%;baseline-shift:sub"
   id="tspan3101-5">1</tspan>(x<tspan
   style="font-size:65.00091553%;baseline-shift:sub"
   id="tspan3105-3">1</tspan>)</tspan></text>
    <text
       xml:space="preserve"
       style="font-size:40px;font-style:normal;font-weight:normal;line-height:125%;letter-spacing:0px;word-spacing:0px;fill:#000000;fill-opacity:1;stroke:none;font-family:Sans"
       x="255.02448"
       y="532.94855"
       id="text4833-09"
       sodipodi:linespacing="125%"><tspan
         sodipodi:role="line"
         id="tspan4835-6"
         x="255.02448"
         y="532.94855">(f<tspan
   style="font-size:65.00091553%;baseline-shift:sub"
   id="tspan3050">0</tspan>, x<tspan
   style="font-size:65.00091553%;baseline-shift:sub"
   id="tspan3052">0</tspan>), (f<tspan
   style="font-size:65.00091553%;baseline-shift:sub"
   id="tspan3054">1</tspan>, x<tspan
   style="font-size:65.00091553%;baseline-shift:sub"
   id="tspan3056">1</tspan>)</tspan></text>
  </g>
</svg>
