<?xml version="1.0" encoding="UTF-8" standalone="no"?>
<svg
   xmlns:dc="http://purl.org/dc/elements/1.1/"
   xmlns:cc="http://creativecommons.org/ns#"
   xmlns:rdf="http://www.w3.org/1999/02/22-rdf-syntax-ns#"
   xmlns:svg="http://www.w3.org/2000/svg"
   xmlns="http://www.w3.org/2000/svg"
   xmlns:sodipodi="http://sodipodi.sourceforge.net/DTD/sodipodi-0.dtd"
   xmlns:inkscape="http://www.inkscape.org/namespaces/inkscape"
   width="4000"
   height="1000"
   viewBox="199 59 2187.7088 547.07693"
   id="svg2"
   version="1.1"
   inkscape:version="0.48.4 r9939"
   sodipodi:docname="circuitEval.svg">
  <metadata
     id="metadata232">
    <rdf:RDF>
      <cc:Work
         rdf:about="">
        <dc:format>image/svg+xml</dc:format>
        <dc:type
           rdf:resource="http://purl.org/dc/dcmitype/StillImage" />
        <dc:title />
      </cc:Work>
    </rdf:RDF>
  </metadata>
  <defs
     id="defs230">
    <marker
       inkscape:stockid="Arrow1Lend"
       orient="auto"
       refY="0"
       refX="0"
       id="Arrow1Lend"
       style="overflow:visible">
      <path
         id="path3927"
         d="M 0,0 5,-5 -12.5,0 5,5 0,0 z"
         style="fill-rule:evenodd;stroke:#000000;stroke-width:1pt"
         transform="matrix(-0.8,0,0,-0.8,-10,0)"
         inkscape:connector-curvature="0" />
    </marker>
    <marker
       style="overflow:visible"
       id="Arrow1Lend-1"
       refX="0"
       refY="0"
       orient="auto"
       inkscape:stockid="Arrow1Lend">
      <path
         transform="matrix(-0.8,0,0,-0.8,-10,0)"
         style="fill-rule:evenodd;stroke:#000000;stroke-width:1pt"
         d="M 0,0 5,-5 -12.5,0 5,5 0,0 z"
         id="path3927-3"
         inkscape:connector-curvature="0" />
    </marker>
    <marker
       style="overflow:visible"
       id="Arrow1Lend-7"
       refX="0"
       refY="0"
       orient="auto"
       inkscape:stockid="Arrow1Lend">
      <path
         transform="matrix(-0.8,0,0,-0.8,-10,0)"
         style="fill-rule:evenodd;stroke:#000000;stroke-width:1pt"
         d="M 0,0 5,-5 -12.5,0 5,5 0,0 z"
         id="path3927-5"
         inkscape:connector-curvature="0" />
    </marker>
    <marker
       style="overflow:visible"
       id="Arrow1Lend-8"
       refX="0"
       refY="0"
       orient="auto"
       inkscape:stockid="Arrow1Lend">
      <path
         transform="matrix(-0.8,0,0,-0.8,-10,0)"
         style="fill-rule:evenodd;stroke:#000000;stroke-width:1pt"
         d="M 0,0 5,-5 -12.5,0 5,5 0,0 z"
         id="path3927-2"
         inkscape:connector-curvature="0" />
    </marker>
    <marker
       style="overflow:visible"
       id="Arrow1Lend-5"
       refX="0"
       refY="0"
       orient="auto"
       inkscape:stockid="Arrow1Lend">
      <path
         inkscape:connector-curvature="0"
         transform="matrix(-0.8,0,0,-0.8,-10,0)"
         style="fill-rule:evenodd;stroke:#000000;stroke-width:1pt"
         d="M 0,0 5,-5 -12.5,0 5,5 0,0 z"
         id="path3986" />
    </marker>
    <marker
       inkscape:stockid="Arrow1Lend"
       orient="auto"
       refY="0"
       refX="0"
       id="Arrow1Lend-54"
       style="overflow:visible">
      <path
         id="path3927-8"
         d="M 0,0 5,-5 -12.5,0 5,5 0,0 z"
         style="fill-rule:evenodd;stroke:#000000;stroke-width:1pt"
         transform="matrix(-0.8,0,0,-0.8,-10,0)"
         inkscape:connector-curvature="0" />
    </marker>
  </defs>
  <sodipodi:namedview
     pagecolor="#ffffff"
     bordercolor="#666666"
     borderopacity="1"
     objecttolerance="10"
     gridtolerance="10"
     guidetolerance="10"
     inkscape:pageopacity="0"
     inkscape:pageshadow="2"
     inkscape:window-width="1916"
     inkscape:window-height="1002"
     id="namedview228"
     showgrid="false"
     inkscape:zoom="0.72456085"
     inkscape:cx="3631.0691"
     inkscape:cy="545.75594"
     inkscape:window-x="0"
     inkscape:window-y="27"
     inkscape:window-maximized="0"
     inkscape:current-layer="svg2" />
  <g
     id="g3279"
     transform="translate(10.978291,-6.341167)">
    <g
       transform="translate(0,33.229546)"
       id="g4">
      <rect
         id="rect6"
         height="80"
         width="80"
         y="100"
         x="200"
         style="fill:#ffffff" />
      <rect
         id="rect8"
         height="80"
         width="80"
         y="100"
         x="200"
         style="fill:none;stroke:#000000;stroke-width:2" />
      <text
         id="text10"
         y="143.89999"
         x="240"
         style="font-size:12.79979992px;font-style:normal;font-weight:normal;text-anchor:middle;fill:#000000;font-family:sans-serif"
         font-size="12.7998">
        <tspan
           id="tspan12"
           y="143.89999"
           x="240" />
      </text>
    </g>
    <g
       transform="translate(0,33.229546)"
       id="g14">
      <rect
         id="rect16"
         height="80"
         width="80"
         y="100"
         x="360"
         style="fill:#ffffff" />
      <rect
         id="rect18"
         height="80"
         width="80"
         y="100"
         x="360"
         style="fill:none;stroke:#000000;stroke-width:2" />
      <text
         id="text20"
         y="143.89999"
         x="400"
         style="font-size:12.79979992px;font-style:normal;font-weight:normal;text-anchor:middle;fill:#000000;font-family:sans-serif"
         font-size="12.7998">
        <tspan
           id="tspan22"
           y="143.89999"
           x="400" />
      </text>
    </g>
    <g
       transform="translate(0,33.229546)"
       id="g24">
      <rect
         id="rect26"
         height="80"
         width="80"
         y="100"
         x="520"
         style="fill:#ffffff" />
      <rect
         id="rect28"
         height="80"
         width="80"
         y="100"
         x="520"
         style="fill:none;stroke:#000000;stroke-width:2" />
      <text
         id="text30"
         y="143.89999"
         x="560"
         style="font-size:12.79979992px;font-style:normal;font-weight:normal;text-anchor:middle;fill:#000000;font-family:sans-serif"
         font-size="12.7998">
        <tspan
           id="tspan32"
           y="143.89999"
           x="560" />
      </text>
    </g>
    <g
       transform="translate(0,33.229546)"
       id="g34">
      <rect
         id="rect36"
         height="80"
         width="80"
         y="100"
         x="680"
         style="fill:#ffffff" />
      <rect
         id="rect38"
         height="80"
         width="80"
         y="100"
         x="680"
         style="fill:none;stroke:#000000;stroke-width:2" />
      <text
         id="text40"
         y="143.89999"
         x="720"
         style="font-size:12.79979992px;font-style:normal;font-weight:normal;text-anchor:middle;fill:#000000;font-family:sans-serif"
         font-size="12.7998">
        <tspan
           id="tspan42"
           y="143.89999"
           x="720" />
      </text>
    </g>
    <g
       transform="translate(0,33.229546)"
       id="g44">
      <rect
         id="rect46"
         height="80"
         width="80"
         y="260"
         x="280"
         style="fill:#ffffff" />
      <rect
         id="rect48"
         height="80"
         width="80"
         y="260"
         x="280"
         style="fill:none;stroke:#000000;stroke-width:2" />
      <text
         id="text50"
         y="303.89999"
         x="320"
         style="font-size:12.79979992px;font-style:normal;font-weight:normal;text-anchor:middle;fill:#000000;font-family:sans-serif"
         font-size="12.7998">
        <tspan
           id="tspan52"
           y="303.89999"
           x="320" />
      </text>
    </g>
    <g
       transform="translate(0,33.229546)"
       id="g54">
      <rect
         id="rect56"
         height="80"
         width="80"
         y="260"
         x="440"
         style="fill:#ffffff" />
      <rect
         id="rect58"
         height="80"
         width="80"
         y="260"
         x="440"
         style="fill:none;stroke:#000000;stroke-width:2" />
      <text
         id="text60"
         y="303.89999"
         x="480"
         style="font-size:12.79979992px;font-style:normal;font-weight:normal;text-anchor:middle;fill:#000000;font-family:sans-serif"
         font-size="12.7998">
        <tspan
           id="tspan62"
           y="303.89999"
           x="480" />
      </text>
    </g>
    <g
       transform="translate(0,33.229546)"
       id="g64">
      <rect
         id="rect66"
         height="80"
         width="80"
         y="440"
         x="360"
         style="fill:#ffffff" />
      <rect
         id="rect68"
         height="80"
         width="80"
         y="440"
         x="360"
         style="fill:none;stroke:#000000;stroke-width:2" />
      <text
         id="text70"
         y="483.89999"
         x="400"
         style="font-size:12.79979992px;font-style:normal;font-weight:normal;text-anchor:middle;fill:#000000;font-family:sans-serif"
         font-size="12.7998">
        <tspan
           id="tspan72"
           y="483.89999"
           x="400" />
      </text>
    </g>
    <g
       transform="translate(0,33.229546)"
       id="g74">
      <rect
         id="rect76"
         height="80"
         width="80"
         y="440"
         x="600"
         style="fill:#ffffff" />
      <rect
         id="rect78"
         height="80"
         width="80"
         y="440"
         x="600"
         style="fill:none;stroke:#000000;stroke-width:2" />
      <text
         id="text80"
         y="483.89999"
         x="640"
         style="font-size:12.79979992px;font-style:normal;font-weight:normal;text-anchor:middle;fill:#000000;font-family:sans-serif"
         font-size="12.7998">
        <tspan
           id="tspan82"
           y="483.89999"
           x="640" />
      </text>
    </g>
    <g
       transform="translate(0,33.229546)"
       id="g84">
      <polyline
         id="polyline86"
         points="240,181.005 240,220.503 300,220.503 300,250.264 "
         style="fill:none;stroke:#000000;stroke-width:2" />
      <polygon
         id="polygon88"
         points="295,247.764 300,250.264 305,247.764 300,257.764 "
         style="fill:#000000" />
      <polygon
         id="polygon90"
         points="295,247.764 300,250.264 305,247.764 300,257.764 "
         style="fill:none;stroke:#000000;stroke-width:2" />
    </g>
    <g
       transform="translate(0,33.229546)"
       id="g92">
      <polyline
         id="polyline94"
         points="400,180 400,220 340,220 340,250.264 "
         style="fill:none;stroke:#000000;stroke-width:2" />
      <polygon
         id="polygon96"
         points="335,247.764 340,250.264 345,247.764 340,257.764 "
         style="fill:#000000" />
      <polygon
         id="polygon98"
         points="335,247.764 340,250.264 345,247.764 340,257.764 "
         style="fill:none;stroke:#000000;stroke-width:2" />
    </g>
    <g
       transform="translate(0,33.229546)"
       id="g100">
      <polyline
         id="polyline102"
         points="560,180 560,220 500,220 500,250.264 "
         style="fill:none;stroke:#000000;stroke-width:2" />
      <polygon
         id="polygon104"
         points="495,247.764 500,250.264 505,247.764 500,257.764 "
         style="fill:#000000" />
      <polygon
         id="polygon106"
         points="495,247.764 500,250.264 505,247.764 500,257.764 "
         style="fill:none;stroke:#000000;stroke-width:2" />
    </g>
    <g
       transform="translate(0,33.229546)"
       id="g108">
      <polyline
         id="polyline110"
         points="400,180 400,220 460,220 460,250.264 "
         style="fill:none;stroke:#000000;stroke-width:2" />
      <polygon
         id="polygon112"
         points="455,247.764 460,250.264 465,247.764 460,257.764 "
         style="fill:#000000" />
      <polygon
         id="polygon114"
         points="455,247.764 460,250.264 465,247.764 460,257.764 "
         style="fill:none;stroke:#000000;stroke-width:2" />
    </g>
    <g
       transform="translate(0,33.229546)"
       id="g116">
      <polyline
         id="polyline118"
         points="720,180 720,400 660,400 660,430.264 "
         style="fill:none;stroke:#000000;stroke-width:2" />
      <polygon
         id="polygon120"
         points="655,427.764 660,430.264 665,427.764 660,437.764 "
         style="fill:#000000" />
      <polygon
         id="polygon122"
         points="655,427.764 660,430.264 665,427.764 660,437.764 "
         style="fill:none;stroke:#000000;stroke-width:2" />
    </g>
    <g
       transform="translate(0,33.229546)"
       id="g124">
      <polyline
         id="polyline126"
         points="480,340 480,400 620,400 620,430.264 "
         style="fill:none;stroke:#000000;stroke-width:2" />
      <polygon
         id="polygon128"
         points="615,427.764 620,430.264 625,427.764 620,437.764 "
         style="fill:#000000" />
      <polygon
         id="polygon130"
         points="615,427.764 620,430.264 625,427.764 620,437.764 "
         style="fill:none;stroke:#000000;stroke-width:2" />
    </g>
    <g
       transform="translate(0,33.229546)"
       id="g132">
      <polyline
         id="polyline134"
         points="480,340 480,400 420,400 420,430.264 "
         style="fill:none;stroke:#000000;stroke-width:2" />
      <polygon
         id="polygon136"
         points="415,427.764 420,430.264 425,427.764 420,437.764 "
         style="fill:#000000" />
      <polygon
         id="polygon138"
         points="415,427.764 420,430.264 425,427.764 420,437.764 "
         style="fill:none;stroke:#000000;stroke-width:2" />
    </g>
    <g
       transform="translate(0,33.229546)"
       id="g140">
      <polyline
         id="polyline142"
         points="320,340 320,400 380,400 380,430.264 "
         style="fill:none;stroke:#000000;stroke-width:2" />
      <polygon
         id="polygon144"
         points="375,427.764 380,430.264 385,427.764 380,437.764 "
         style="fill:#000000" />
      <polygon
         id="polygon146"
         points="375,427.764 380,430.264 385,427.764 380,437.764 "
         style="fill:none;stroke:#000000;stroke-width:2" />
    </g>
    <g
       transform="translate(0,33.229546)"
       id="g148">
      <line
         id="line150"
         y2="90.263901"
         x2="220"
         y1="60"
         x1="220"
         style="fill:none;stroke:#000000;stroke-width:2" />
      <polygon
         id="polygon152"
         points="215,87.7639 220,90.2639 225,87.7639 220,97.7639 "
         style="fill:#000000" />
      <polygon
         id="polygon154"
         points="215,87.7639 220,90.2639 225,87.7639 220,97.7639 "
         style="fill:none;stroke:#000000;stroke-width:2" />
    </g>
    <g
       transform="translate(0,33.229546)"
       id="g156">
      <line
         id="line158"
         y2="90.263901"
         x2="260"
         y1="60"
         x1="260"
         style="fill:none;stroke:#000000;stroke-width:2" />
      <polygon
         id="polygon160"
         points="255,87.7639 260,90.2639 265,87.7639 260,97.7639 "
         style="fill:#000000" />
      <polygon
         id="polygon162"
         points="255,87.7639 260,90.2639 265,87.7639 260,97.7639 "
         style="fill:none;stroke:#000000;stroke-width:2" />
    </g>
    <g
       transform="translate(0,33.229546)"
       id="g164">
      <line
         id="line166"
         y2="90.263901"
         x2="380"
         y1="60"
         x1="380"
         style="fill:none;stroke:#000000;stroke-width:2" />
      <polygon
         id="polygon168"
         points="375,87.7639 380,90.2639 385,87.7639 380,97.7639 "
         style="fill:#000000" />
      <polygon
         id="polygon170"
         points="375,87.7639 380,90.2639 385,87.7639 380,97.7639 "
         style="fill:none;stroke:#000000;stroke-width:2" />
    </g>
    <g
       transform="translate(0,33.229546)"
       id="g172">
      <line
         id="line174"
         y2="90.263901"
         x2="420"
         y1="60"
         x1="420"
         style="fill:none;stroke:#000000;stroke-width:2" />
      <polygon
         id="polygon176"
         points="415,87.7639 420,90.2639 425,87.7639 420,97.7639 "
         style="fill:#000000" />
      <polygon
         id="polygon178"
         points="415,87.7639 420,90.2639 425,87.7639 420,97.7639 "
         style="fill:none;stroke:#000000;stroke-width:2" />
    </g>
    <g
       transform="translate(0,33.229546)"
       id="g180">
      <line
         id="line182"
         y2="90.263901"
         x2="540"
         y1="60"
         x1="540"
         style="fill:none;stroke:#000000;stroke-width:2" />
      <polygon
         id="polygon184"
         points="535,87.7639 540,90.2639 545,87.7639 540,97.7639 "
         style="fill:#000000" />
      <polygon
         id="polygon186"
         points="535,87.7639 540,90.2639 545,87.7639 540,97.7639 "
         style="fill:none;stroke:#000000;stroke-width:2" />
    </g>
    <g
       transform="translate(0,33.229546)"
       id="g188">
      <line
         id="line190"
         y2="90.263901"
         x2="580"
         y1="60"
         x1="580"
         style="fill:none;stroke:#000000;stroke-width:2" />
      <polygon
         id="polygon192"
         points="575,87.7639 580,90.2639 585,87.7639 580,97.7639 "
         style="fill:#000000" />
      <polygon
         id="polygon194"
         points="575,87.7639 580,90.2639 585,87.7639 580,97.7639 "
         style="fill:none;stroke:#000000;stroke-width:2" />
    </g>
    <g
       transform="translate(0,33.229546)"
       id="g196">
      <line
         id="line198"
         y2="90.263901"
         x2="700"
         y1="60"
         x1="700"
         style="fill:none;stroke:#000000;stroke-width:2" />
      <polygon
         id="polygon200"
         points="695,87.7639 700,90.2639 705,87.7639 700,97.7639 "
         style="fill:#000000" />
      <polygon
         id="polygon202"
         points="695,87.7639 700,90.2639 705,87.7639 700,97.7639 "
         style="fill:none;stroke:#000000;stroke-width:2" />
    </g>
    <g
       transform="translate(0,33.229546)"
       id="g204">
      <line
         id="line206"
         y2="90.263901"
         x2="740"
         y1="60"
         x1="740"
         style="fill:none;stroke:#000000;stroke-width:2" />
      <polygon
         id="polygon208"
         points="735,87.7639 740,90.2639 745,87.7639 740,97.7639 "
         style="fill:#000000" />
      <polygon
         id="polygon210"
         points="735,87.7639 740,90.2639 745,87.7639 740,97.7639 "
         style="fill:none;stroke:#000000;stroke-width:2" />
    </g>
    <g
       transform="translate(0,33.229546)"
       id="g212">
      <line
         id="line214"
         y2="550.26398"
         x2="400"
         y1="520"
         x1="400"
         style="fill:none;stroke:#000000;stroke-width:2" />
      <polygon
         id="polygon216"
         points="395,547.764 400,550.264 405,547.764 400,557.764 "
         style="fill:#000000" />
      <polygon
         id="polygon218"
         points="395,547.764 400,550.264 405,547.764 400,557.764 "
         style="fill:none;stroke:#000000;stroke-width:2" />
    </g>
    <g
       transform="translate(0,33.229546)"
       id="g220">
      <line
         id="line222"
         y2="550.26398"
         x2="640"
         y1="520.97699"
         x1="640"
         style="fill:none;stroke:#000000;stroke-width:2" />
      <polygon
         id="polygon224"
         points="635,547.764 640,550.264 645,547.764 640,557.764 "
         style="fill:#000000" />
      <polygon
         id="polygon226"
         points="635,547.764 640,550.264 645,547.764 640,557.764 "
         style="fill:none;stroke:#000000;stroke-width:2" />
    </g>
    <text
       sodipodi:linespacing="125%"
       id="text3209"
       y="176.42392"
       x="215.53407"
       style="font-size:21.88307762px;font-style:normal;font-weight:normal;line-height:125%;letter-spacing:0px;word-spacing:0px;fill:#000000;fill-opacity:1;stroke:none;font-family:Sans"
       xml:space="preserve"><tspan
         y="176.42392"
         x="215.53407"
         id="tspan3211"
         sodipodi:role="line">XOR</tspan></text>
    <text
       sodipodi:linespacing="125%"
       id="text3209-9"
       y="176.83919"
       x="382.77936"
       style="font-size:21.88307762px;font-style:normal;font-weight:normal;line-height:125%;letter-spacing:0px;word-spacing:0px;fill:#000000;fill-opacity:1;stroke:none;font-family:Sans"
       xml:space="preserve"><tspan
         y="176.83919"
         x="382.77936"
         id="tspan3211-1"
         sodipodi:role="line">OR</tspan></text>
    <text
       sodipodi:linespacing="125%"
       id="text3209-9-3"
       y="178.34927"
       x="543.32135"
       style="font-size:21.88307762px;font-style:normal;font-weight:normal;line-height:125%;letter-spacing:0px;word-spacing:0px;fill:#000000;fill-opacity:1;stroke:none;font-family:Sans"
       xml:space="preserve"><tspan
         y="178.34927"
         x="543.32135"
         id="tspan3211-1-4"
         sodipodi:role="line">OR</tspan></text>
    <text
       sodipodi:linespacing="125%"
       id="text3209-9-3-4"
       y="179.85936"
       x="696.5957"
       style="font-size:21.88307762px;font-style:normal;font-weight:normal;line-height:125%;letter-spacing:0px;word-spacing:0px;fill:#000000;fill-opacity:1;stroke:none;font-family:Sans"
       xml:space="preserve"><tspan
         y="179.85936"
         x="696.5957"
         id="tspan3211-1-4-4"
         sodipodi:role="line">AND</tspan></text>
    <text
       sodipodi:linespacing="125%"
       id="text3209-9-3-4-1"
       y="337.67471"
       x="296.20187"
       style="font-size:21.88307762px;font-style:normal;font-weight:normal;line-height:125%;letter-spacing:0px;word-spacing:0px;fill:#000000;fill-opacity:1;stroke:none;font-family:Sans"
       xml:space="preserve"><tspan
         y="337.67471"
         x="296.20187"
         id="tspan3211-1-4-4-6"
         sodipodi:role="line">AND</tspan></text>
    <text
       sodipodi:linespacing="125%"
       id="text3209-9-3-4-3"
       y="339.93988"
       x="456.27167"
       style="font-size:21.88307762px;font-style:normal;font-weight:normal;line-height:125%;letter-spacing:0px;word-spacing:0px;fill:#000000;fill-opacity:1;stroke:none;font-family:Sans"
       xml:space="preserve"><tspan
         y="339.93988"
         x="456.27167"
         id="tspan3211-1-4-4-7"
         sodipodi:role="line">XOR</tspan></text>
    <text
       sodipodi:linespacing="125%"
       id="text3209-9-3-4-6"
       y="518.8855"
       x="376.99182"
       style="font-size:21.88307762px;font-style:normal;font-weight:normal;line-height:125%;letter-spacing:0px;word-spacing:0px;fill:#000000;fill-opacity:1;stroke:none;font-family:Sans"
       xml:space="preserve"><tspan
         y="518.8855"
         x="376.99182"
         id="tspan3211-1-4-4-4"
         sodipodi:role="line">AND</tspan></text>
    <text
       sodipodi:linespacing="125%"
       id="text3209-9-3-4-4"
       y="518.13049"
       x="620.87177"
       style="font-size:21.88307762px;font-style:normal;font-weight:normal;line-height:125%;letter-spacing:0px;word-spacing:0px;fill:#000000;fill-opacity:1;stroke:none;font-family:Sans"
       xml:space="preserve"><tspan
         y="518.13049"
         x="620.87177"
         id="tspan3211-1-4-4-1"
         sodipodi:role="line">OR</tspan></text>
    <text
       sodipodi:linespacing="125%"
       id="text4383"
       y="113.03175"
       x="200.3978"
       style="font-size:21.88307762px;font-style:normal;font-weight:normal;line-height:125%;letter-spacing:0px;word-spacing:0px;fill:#000000;fill-opacity:1;stroke:none;font-family:Sans"
       xml:space="preserve"><tspan
         y="113.03175"
         x="200.3978"
         id="tspan4385"
         sodipodi:role="line">0</tspan></text>
    <text
       sodipodi:linespacing="125%"
       id="text4383-5"
       y="114.20207"
       x="241.76476"
       style="font-size:21.88307762px;font-style:normal;font-weight:normal;line-height:125%;letter-spacing:0px;word-spacing:0px;fill:#000000;fill-opacity:1;stroke:none;font-family:Sans"
       xml:space="preserve"><tspan
         y="114.20207"
         x="241.76476"
         id="tspan4385-4"
         sodipodi:role="line">0</tspan></text>
    <text
       inkscape:transform-center-y="-15.126953"
       inkscape:transform-center-x="52.445561"
       sodipodi:linespacing="125%"
       id="text4383-55"
       y="117.97729"
       x="562.65942"
       style="font-size:21.88307762px;font-style:normal;font-weight:normal;line-height:125%;letter-spacing:0px;word-spacing:0px;fill:#000000;fill-opacity:1;stroke:none;font-family:Sans"
       xml:space="preserve"><tspan
         y="117.97729"
         x="562.65942"
         id="tspan4385-0"
         sodipodi:role="line">0</tspan></text>
    <text
       sodipodi:linespacing="125%"
       id="text4417"
       y="113.7868"
       x="401.99515"
       style="font-size:21.88307762px;font-style:normal;font-weight:normal;line-height:125%;letter-spacing:0px;word-spacing:0px;fill:#000000;fill-opacity:1;stroke:none;font-family:Sans"
       xml:space="preserve"><tspan
         y="113.7868"
         x="401.99515"
         id="tspan4419"
         sodipodi:role="line">1</tspan></text>
    <text
       sodipodi:linespacing="125%"
       id="text4417-3"
       y="115.72284"
       x="521.68921"
       style="font-size:21.88307762px;font-style:normal;font-weight:normal;line-height:125%;letter-spacing:0px;word-spacing:0px;fill:#000000;fill-opacity:1;stroke:none;font-family:Sans"
       xml:space="preserve"><tspan
         y="115.72284"
         x="521.68921"
         id="tspan4419-2"
         sodipodi:role="line">1</tspan></text>
    <text
       inkscape:transform-center-y="-8.2756038"
       inkscape:transform-center-x="28.691763"
       sodipodi:linespacing="125%"
       id="text4383-55-8"
       y="114.20207"
       x="679.69153"
       style="font-size:21.88307762px;font-style:normal;font-weight:normal;line-height:125%;letter-spacing:0px;word-spacing:0px;fill:#000000;fill-opacity:1;stroke:none;font-family:Sans"
       xml:space="preserve"><tspan
         y="114.20207"
         x="679.69153"
         id="tspan4385-0-9"
         sodipodi:role="line">0</tspan></text>
    <text
       sodipodi:linespacing="125%"
       id="text4417-3-7"
       y="114.9678"
       x="722.53149"
       style="font-size:21.88307762px;font-style:normal;font-weight:normal;line-height:125%;letter-spacing:0px;word-spacing:0px;fill:#000000;fill-opacity:1;stroke:none;font-family:Sans"
       xml:space="preserve"><tspan
         y="114.9678"
         x="722.53149"
         id="tspan4419-2-2"
         sodipodi:role="line">1</tspan></text>
    <text
       inkscape:transform-center-y="-4.5273887"
       inkscape:transform-center-x="15.696608"
       sodipodi:linespacing="125%"
       id="text4383-55-8-2"
       y="111.93694"
       x="362.57214"
       style="font-size:21.88307762px;font-style:normal;font-weight:normal;line-height:125%;letter-spacing:0px;word-spacing:0px;fill:#000000;fill-opacity:1;stroke:none;font-family:Sans"
       xml:space="preserve"><tspan
         y="111.93694"
         x="362.57214"
         id="tspan4385-0-9-6"
         sodipodi:role="line">0</tspan></text>
  </g>
  <g
     id="g3585"
     transform="translate(756.96396,-5.5861159)">
    <g
       transform="translate(0,33.229546)"
       id="g4-1">
      <rect
         id="rect6-8"
         height="80"
         width="80"
         y="100"
         x="200"
         style="fill:#ffffff" />
      <rect
         id="rect8-7"
         height="80"
         width="80"
         y="100"
         x="200"
         style="fill:none;stroke:#000000;stroke-width:2" />
      <text
         id="text10-3"
         y="143.89999"
         x="240"
         style="font-size:12.79979992px;font-style:normal;font-weight:normal;text-anchor:middle;fill:#000000;font-family:sans-serif"
         font-size="12.7998">
        <tspan
           id="tspan12-7"
           y="143.89999"
           x="240" />
      </text>
    </g>
    <g
       transform="translate(0,33.229546)"
       id="g14-2">
      <rect
         id="rect16-2"
         height="80"
         width="80"
         y="100"
         x="360"
         style="fill:#ffffff" />
      <rect
         id="rect18-5"
         height="80"
         width="80"
         y="100"
         x="360"
         style="fill:none;stroke:#000000;stroke-width:2" />
      <text
         id="text20-4"
         y="143.89999"
         x="400"
         style="font-size:12.79979992px;font-style:normal;font-weight:normal;text-anchor:middle;fill:#000000;font-family:sans-serif"
         font-size="12.7998">
        <tspan
           id="tspan22-1"
           y="143.89999"
           x="400" />
      </text>
    </g>
    <g
       transform="translate(0,33.229546)"
       id="g24-6">
      <rect
         id="rect26-5"
         height="80"
         width="80"
         y="100"
         x="520"
         style="fill:#ffffff" />
      <rect
         id="rect28-8"
         height="80"
         width="80"
         y="100"
         x="520"
         style="fill:none;stroke:#000000;stroke-width:2" />
      <text
         id="text30-2"
         y="143.89999"
         x="560"
         style="font-size:12.79979992px;font-style:normal;font-weight:normal;text-anchor:middle;fill:#000000;font-family:sans-serif"
         font-size="12.7998">
        <tspan
           id="tspan32-3"
           y="143.89999"
           x="560" />
      </text>
    </g>
    <g
       transform="translate(0,33.229546)"
       id="g34-6">
      <rect
         id="rect36-0"
         height="80"
         width="80"
         y="100"
         x="680"
         style="fill:#ffffff" />
      <rect
         id="rect38-1"
         height="80"
         width="80"
         y="100"
         x="680"
         style="fill:none;stroke:#000000;stroke-width:2" />
      <text
         id="text40-0"
         y="143.89999"
         x="720"
         style="font-size:12.79979992px;font-style:normal;font-weight:normal;text-anchor:middle;fill:#000000;font-family:sans-serif"
         font-size="12.7998">
        <tspan
           id="tspan42-8"
           y="143.89999"
           x="720" />
      </text>
    </g>
    <g
       transform="translate(0,33.229546)"
       id="g44-4">
      <rect
         id="rect46-2"
         height="80"
         width="80"
         y="260"
         x="280"
         style="fill:#ffffff" />
      <rect
         id="rect48-9"
         height="80"
         width="80"
         y="260"
         x="280"
         style="fill:none;stroke:#000000;stroke-width:2" />
      <text
         id="text50-9"
         y="303.89999"
         x="320"
         style="font-size:12.79979992px;font-style:normal;font-weight:normal;text-anchor:middle;fill:#000000;font-family:sans-serif"
         font-size="12.7998">
        <tspan
           id="tspan52-4"
           y="303.89999"
           x="320" />
      </text>
    </g>
    <g
       transform="translate(0,33.229546)"
       id="g54-7">
      <rect
         id="rect56-7"
         height="80"
         width="80"
         y="260"
         x="440"
         style="fill:#ffffff" />
      <rect
         id="rect58-0"
         height="80"
         width="80"
         y="260"
         x="440"
         style="fill:none;stroke:#000000;stroke-width:2" />
      <text
         id="text60-4"
         y="303.89999"
         x="480"
         style="font-size:12.79979992px;font-style:normal;font-weight:normal;text-anchor:middle;fill:#000000;font-family:sans-serif"
         font-size="12.7998">
        <tspan
           id="tspan62-4"
           y="303.89999"
           x="480" />
      </text>
    </g>
    <g
       transform="translate(0,33.229546)"
       id="g64-4">
      <rect
         id="rect66-7"
         height="80"
         width="80"
         y="440"
         x="360"
         style="fill:#ffffff" />
      <rect
         id="rect68-5"
         height="80"
         width="80"
         y="440"
         x="360"
         style="fill:none;stroke:#000000;stroke-width:2" />
      <text
         id="text70-1"
         y="483.89999"
         x="400"
         style="font-size:12.79979992px;font-style:normal;font-weight:normal;text-anchor:middle;fill:#000000;font-family:sans-serif"
         font-size="12.7998">
        <tspan
           id="tspan72-0"
           y="483.89999"
           x="400" />
      </text>
    </g>
    <g
       transform="translate(0,33.229546)"
       id="g74-2">
      <rect
         id="rect76-5"
         height="80"
         width="80"
         y="440"
         x="600"
         style="fill:#ffffff" />
      <rect
         id="rect78-4"
         height="80"
         width="80"
         y="440"
         x="600"
         style="fill:none;stroke:#000000;stroke-width:2" />
      <text
         id="text80-7"
         y="483.89999"
         x="640"
         style="font-size:12.79979992px;font-style:normal;font-weight:normal;text-anchor:middle;fill:#000000;font-family:sans-serif"
         font-size="12.7998">
        <tspan
           id="tspan82-0"
           y="483.89999"
           x="640" />
      </text>
    </g>
    <g
       transform="translate(0,33.229546)"
       id="g84-5">
      <polyline
         id="polyline86-5"
         points="240,181.005 240,220.503 300,220.503 300,250.264 "
         style="fill:none;stroke:#000000;stroke-width:2" />
      <polygon
         id="polygon88-5"
         points="300,250.264 305,247.764 300,257.764 295,247.764 "
         style="fill:#000000" />
      <polygon
         id="polygon90-3"
         points="300,250.264 305,247.764 300,257.764 295,247.764 "
         style="fill:none;stroke:#000000;stroke-width:2" />
    </g>
    <g
       transform="translate(0,33.229546)"
       id="g92-8">
      <polyline
         id="polyline94-8"
         points="400,180 400,220 340,220 340,250.264 "
         style="fill:none;stroke:#000000;stroke-width:2" />
      <polygon
         id="polygon96-1"
         points="340,250.264 345,247.764 340,257.764 335,247.764 "
         style="fill:#000000" />
      <polygon
         id="polygon98-8"
         points="340,250.264 345,247.764 340,257.764 335,247.764 "
         style="fill:none;stroke:#000000;stroke-width:2" />
    </g>
    <g
       transform="translate(0,33.229546)"
       id="g100-1">
      <polyline
         id="polyline102-2"
         points="560,180 560,220 500,220 500,250.264 "
         style="fill:none;stroke:#000000;stroke-width:2" />
      <polygon
         id="polygon104-8"
         points="500,250.264 505,247.764 500,257.764 495,247.764 "
         style="fill:#000000" />
      <polygon
         id="polygon106-5"
         points="500,250.264 505,247.764 500,257.764 495,247.764 "
         style="fill:none;stroke:#000000;stroke-width:2" />
    </g>
    <g
       transform="translate(0,33.229546)"
       id="g108-6">
      <polyline
         id="polyline110-7"
         points="400,180 400,220 460,220 460,250.264 "
         style="fill:none;stroke:#000000;stroke-width:2" />
      <polygon
         id="polygon112-5"
         points="460,250.264 465,247.764 460,257.764 455,247.764 "
         style="fill:#000000" />
      <polygon
         id="polygon114-0"
         points="460,250.264 465,247.764 460,257.764 455,247.764 "
         style="fill:none;stroke:#000000;stroke-width:2" />
    </g>
    <g
       transform="translate(0,33.229546)"
       id="g116-4">
      <polyline
         id="polyline118-4"
         points="720,180 720,400 660,400 660,430.264 "
         style="fill:none;stroke:#000000;stroke-width:2" />
      <polygon
         id="polygon120-2"
         points="660,430.264 665,427.764 660,437.764 655,427.764 "
         style="fill:#000000" />
      <polygon
         id="polygon122-0"
         points="660,430.264 665,427.764 660,437.764 655,427.764 "
         style="fill:none;stroke:#000000;stroke-width:2" />
    </g>
    <g
       transform="translate(0,33.229546)"
       id="g124-1">
      <polyline
         id="polyline126-6"
         points="480,340 480,400 620,400 620,430.264 "
         style="fill:none;stroke:#000000;stroke-width:2" />
      <polygon
         id="polygon128-7"
         points="620,430.264 625,427.764 620,437.764 615,427.764 "
         style="fill:#000000" />
      <polygon
         id="polygon130-6"
         points="620,430.264 625,427.764 620,437.764 615,427.764 "
         style="fill:none;stroke:#000000;stroke-width:2" />
    </g>
    <g
       transform="translate(0,33.229546)"
       id="g132-0">
      <polyline
         id="polyline134-0"
         points="480,340 480,400 420,400 420,430.264 "
         style="fill:none;stroke:#000000;stroke-width:2" />
      <polygon
         id="polygon136-8"
         points="420,430.264 425,427.764 420,437.764 415,427.764 "
         style="fill:#000000" />
      <polygon
         id="polygon138-5"
         points="420,430.264 425,427.764 420,437.764 415,427.764 "
         style="fill:none;stroke:#000000;stroke-width:2" />
    </g>
    <g
       transform="translate(0,33.229546)"
       id="g140-4">
      <polyline
         id="polyline142-8"
         points="320,340 320,400 380,400 380,430.264 "
         style="fill:none;stroke:#000000;stroke-width:2" />
      <polygon
         id="polygon144-5"
         points="380,430.264 385,427.764 380,437.764 375,427.764 "
         style="fill:#000000" />
      <polygon
         id="polygon146-2"
         points="380,430.264 385,427.764 380,437.764 375,427.764 "
         style="fill:none;stroke:#000000;stroke-width:2" />
    </g>
    <g
       transform="translate(0,33.229546)"
       id="g148-3">
      <line
         id="line150-2"
         y2="90.263901"
         x2="220"
         y1="60"
         x1="220"
         style="fill:none;stroke:#000000;stroke-width:2" />
      <polygon
         id="polygon152-7"
         points="220,90.2639 225,87.7639 220,97.7639 215,87.7639 "
         style="fill:#000000" />
      <polygon
         id="polygon154-3"
         points="220,90.2639 225,87.7639 220,97.7639 215,87.7639 "
         style="fill:none;stroke:#000000;stroke-width:2" />
    </g>
    <g
       transform="translate(0,33.229546)"
       id="g156-2">
      <line
         id="line158-9"
         y2="90.263901"
         x2="260"
         y1="60"
         x1="260"
         style="fill:none;stroke:#000000;stroke-width:2" />
      <polygon
         id="polygon160-3"
         points="260,90.2639 265,87.7639 260,97.7639 255,87.7639 "
         style="fill:#000000" />
      <polygon
         id="polygon162-6"
         points="260,90.2639 265,87.7639 260,97.7639 255,87.7639 "
         style="fill:none;stroke:#000000;stroke-width:2" />
    </g>
    <g
       transform="translate(0,33.229546)"
       id="g164-3">
      <line
         id="line166-1"
         y2="90.263901"
         x2="380"
         y1="60"
         x1="380"
         style="fill:none;stroke:#000000;stroke-width:2" />
      <polygon
         id="polygon168-3"
         points="380,90.2639 385,87.7639 380,97.7639 375,87.7639 "
         style="fill:#000000" />
      <polygon
         id="polygon170-9"
         points="380,90.2639 385,87.7639 380,97.7639 375,87.7639 "
         style="fill:none;stroke:#000000;stroke-width:2" />
    </g>
    <g
       transform="translate(0,33.229546)"
       id="g172-9">
      <line
         id="line174-0"
         y2="90.263901"
         x2="420"
         y1="60"
         x1="420"
         style="fill:none;stroke:#000000;stroke-width:2" />
      <polygon
         id="polygon176-1"
         points="420,90.2639 425,87.7639 420,97.7639 415,87.7639 "
         style="fill:#000000" />
      <polygon
         id="polygon178-5"
         points="420,90.2639 425,87.7639 420,97.7639 415,87.7639 "
         style="fill:none;stroke:#000000;stroke-width:2" />
    </g>
    <g
       transform="translate(0,33.229546)"
       id="g180-7">
      <line
         id="line182-6"
         y2="90.263901"
         x2="540"
         y1="60"
         x1="540"
         style="fill:none;stroke:#000000;stroke-width:2" />
      <polygon
         id="polygon184-8"
         points="540,90.2639 545,87.7639 540,97.7639 535,87.7639 "
         style="fill:#000000" />
      <polygon
         id="polygon186-8"
         points="540,90.2639 545,87.7639 540,97.7639 535,87.7639 "
         style="fill:none;stroke:#000000;stroke-width:2" />
    </g>
    <g
       transform="translate(0,33.229546)"
       id="g188-2">
      <line
         id="line190-5"
         y2="90.263901"
         x2="580"
         y1="60"
         x1="580"
         style="fill:none;stroke:#000000;stroke-width:2" />
      <polygon
         id="polygon192-4"
         points="580,90.2639 585,87.7639 580,97.7639 575,87.7639 "
         style="fill:#000000" />
      <polygon
         id="polygon194-4"
         points="580,90.2639 585,87.7639 580,97.7639 575,87.7639 "
         style="fill:none;stroke:#000000;stroke-width:2" />
    </g>
    <g
       transform="translate(0,33.229546)"
       id="g196-5">
      <line
         id="line198-4"
         y2="90.263901"
         x2="700"
         y1="60"
         x1="700"
         style="fill:none;stroke:#000000;stroke-width:2" />
      <polygon
         id="polygon200-2"
         points="700,90.2639 705,87.7639 700,97.7639 695,87.7639 "
         style="fill:#000000" />
      <polygon
         id="polygon202-2"
         points="700,90.2639 705,87.7639 700,97.7639 695,87.7639 "
         style="fill:none;stroke:#000000;stroke-width:2" />
    </g>
    <g
       transform="translate(0,33.229546)"
       id="g204-4">
      <line
         id="line206-9"
         y2="90.263901"
         x2="740"
         y1="60"
         x1="740"
         style="fill:none;stroke:#000000;stroke-width:2" />
      <polygon
         id="polygon208-6"
         points="740,90.2639 745,87.7639 740,97.7639 735,87.7639 "
         style="fill:#000000" />
      <polygon
         id="polygon210-0"
         points="740,90.2639 745,87.7639 740,97.7639 735,87.7639 "
         style="fill:none;stroke:#000000;stroke-width:2" />
    </g>
    <g
       transform="translate(0,33.229546)"
       id="g212-2">
      <line
         id="line214-3"
         y2="550.26398"
         x2="400"
         y1="520"
         x1="400"
         style="fill:none;stroke:#000000;stroke-width:2" />
      <polygon
         id="polygon216-3"
         points="400,550.264 405,547.764 400,557.764 395,547.764 "
         style="fill:#000000" />
      <polygon
         id="polygon218-6"
         points="400,550.264 405,547.764 400,557.764 395,547.764 "
         style="fill:none;stroke:#000000;stroke-width:2" />
    </g>
    <g
       transform="translate(0,33.229546)"
       id="g220-4">
      <line
         id="line222-7"
         y2="550.26398"
         x2="640"
         y1="520.97699"
         x1="640"
         style="fill:none;stroke:#000000;stroke-width:2" />
      <polygon
         id="polygon224-4"
         points="640,550.264 645,547.764 640,557.764 635,547.764 "
         style="fill:#000000" />
      <polygon
         id="polygon226-7"
         points="640,550.264 645,547.764 640,557.764 635,547.764 "
         style="fill:none;stroke:#000000;stroke-width:2" />
    </g>
    <text
       sodipodi:linespacing="125%"
       id="text3209-8"
       y="176.42392"
       x="215.53407"
       style="font-size:21.88307762px;font-style:normal;font-weight:normal;line-height:125%;letter-spacing:0px;word-spacing:0px;fill:#000000;fill-opacity:1;stroke:none;font-family:Sans"
       xml:space="preserve"><tspan
         y="176.42392"
         x="215.53407"
         id="tspan3211-8"
         sodipodi:role="line">XOR</tspan></text>
    <text
       sodipodi:linespacing="125%"
       id="text3209-9-8"
       y="176.83919"
       x="382.77936"
       style="font-size:21.88307762px;font-style:normal;font-weight:normal;line-height:125%;letter-spacing:0px;word-spacing:0px;fill:#000000;fill-opacity:1;stroke:none;font-family:Sans"
       xml:space="preserve"><tspan
         y="176.83919"
         x="382.77936"
         id="tspan3211-1-9"
         sodipodi:role="line">OR</tspan></text>
    <text
       sodipodi:linespacing="125%"
       id="text3209-9-3-8"
       y="178.34927"
       x="543.32135"
       style="font-size:21.88307762px;font-style:normal;font-weight:normal;line-height:125%;letter-spacing:0px;word-spacing:0px;fill:#000000;fill-opacity:1;stroke:none;font-family:Sans"
       xml:space="preserve"><tspan
         y="178.34927"
         x="543.32135"
         id="tspan3211-1-4-2"
         sodipodi:role="line">OR</tspan></text>
    <text
       sodipodi:linespacing="125%"
       id="text3209-9-3-4-7"
       y="179.85936"
       x="696.5957"
       style="font-size:21.88307762px;font-style:normal;font-weight:normal;line-height:125%;letter-spacing:0px;word-spacing:0px;fill:#000000;fill-opacity:1;stroke:none;font-family:Sans"
       xml:space="preserve"><tspan
         y="179.85936"
         x="696.5957"
         id="tspan3211-1-4-4-5"
         sodipodi:role="line">AND</tspan></text>
    <text
       sodipodi:linespacing="125%"
       id="text3209-9-3-4-1-8"
       y="337.67471"
       x="296.20187"
       style="font-size:21.88307762px;font-style:normal;font-weight:normal;line-height:125%;letter-spacing:0px;word-spacing:0px;fill:#000000;fill-opacity:1;stroke:none;font-family:Sans"
       xml:space="preserve"><tspan
         y="337.67471"
         x="296.20187"
         id="tspan3211-1-4-4-6-5"
         sodipodi:role="line">AND</tspan></text>
    <text
       sodipodi:linespacing="125%"
       id="text3209-9-3-4-3-3"
       y="339.93988"
       x="456.27167"
       style="font-size:21.88307762px;font-style:normal;font-weight:normal;line-height:125%;letter-spacing:0px;word-spacing:0px;fill:#000000;fill-opacity:1;stroke:none;font-family:Sans"
       xml:space="preserve"><tspan
         y="339.93988"
         x="456.27167"
         id="tspan3211-1-4-4-7-2"
         sodipodi:role="line">XOR</tspan></text>
    <text
       sodipodi:linespacing="125%"
       id="text3209-9-3-4-6-2"
       y="518.8855"
       x="376.99182"
       style="font-size:21.88307762px;font-style:normal;font-weight:normal;line-height:125%;letter-spacing:0px;word-spacing:0px;fill:#000000;fill-opacity:1;stroke:none;font-family:Sans"
       xml:space="preserve"><tspan
         y="518.8855"
         x="376.99182"
         id="tspan3211-1-4-4-4-9"
         sodipodi:role="line">AND</tspan></text>
    <text
       sodipodi:linespacing="125%"
       id="text3209-9-3-4-4-7"
       y="518.13049"
       x="620.87177"
       style="font-size:21.88307762px;font-style:normal;font-weight:normal;line-height:125%;letter-spacing:0px;word-spacing:0px;fill:#000000;fill-opacity:1;stroke:none;font-family:Sans"
       xml:space="preserve"><tspan
         y="518.13049"
         x="620.87177"
         id="tspan3211-1-4-4-1-0"
         sodipodi:role="line">OR</tspan></text>
    <text
       sodipodi:linespacing="125%"
       id="text4383-4"
       y="113.03175"
       x="200.3978"
       style="font-size:21.88307762px;font-style:normal;font-weight:normal;line-height:125%;letter-spacing:0px;word-spacing:0px;fill:#000000;fill-opacity:1;stroke:none;font-family:Sans"
       xml:space="preserve"><tspan
         y="113.03175"
         x="200.3978"
         id="tspan4385-9"
         sodipodi:role="line">0</tspan></text>
    <text
       sodipodi:linespacing="125%"
       id="text4383-5-2"
       y="114.20207"
       x="241.76476"
       style="font-size:21.88307762px;font-style:normal;font-weight:normal;line-height:125%;letter-spacing:0px;word-spacing:0px;fill:#000000;fill-opacity:1;stroke:none;font-family:Sans"
       xml:space="preserve"><tspan
         y="114.20207"
         x="241.76476"
         id="tspan4385-4-8"
         sodipodi:role="line">0</tspan></text>
    <text
       inkscape:transform-center-y="-15.126953"
       inkscape:transform-center-x="52.445561"
       sodipodi:linespacing="125%"
       id="text4383-55-88"
       y="117.97729"
       x="562.65942"
       style="font-size:21.88307762px;font-style:normal;font-weight:normal;line-height:125%;letter-spacing:0px;word-spacing:0px;fill:#000000;fill-opacity:1;stroke:none;font-family:Sans"
       xml:space="preserve"><tspan
         y="117.97729"
         x="562.65942"
         id="tspan4385-0-8"
         sodipodi:role="line">0</tspan></text>
    <text
       sodipodi:linespacing="125%"
       id="text4417-2"
       y="113.7868"
       x="401.99515"
       style="font-size:21.88307762px;font-style:normal;font-weight:normal;line-height:125%;letter-spacing:0px;word-spacing:0px;fill:#000000;fill-opacity:1;stroke:none;font-family:Sans"
       xml:space="preserve"><tspan
         y="113.7868"
         x="401.99515"
         id="tspan4419-3"
         sodipodi:role="line">1</tspan></text>
    <text
       sodipodi:linespacing="125%"
       id="text4417-3-4"
       y="115.72284"
       x="521.68921"
       style="font-size:21.88307762px;font-style:normal;font-weight:normal;line-height:125%;letter-spacing:0px;word-spacing:0px;fill:#000000;fill-opacity:1;stroke:none;font-family:Sans"
       xml:space="preserve"><tspan
         y="115.72284"
         x="521.68921"
         id="tspan4419-2-1"
         sodipodi:role="line">1</tspan></text>
    <text
       inkscape:transform-center-y="-8.2756038"
       inkscape:transform-center-x="28.691763"
       sodipodi:linespacing="125%"
       id="text4383-55-8-8"
       y="114.20207"
       x="679.69153"
       style="font-size:21.88307762px;font-style:normal;font-weight:normal;line-height:125%;letter-spacing:0px;word-spacing:0px;fill:#000000;fill-opacity:1;stroke:none;font-family:Sans"
       xml:space="preserve"><tspan
         y="114.20207"
         x="679.69153"
         id="tspan4385-0-9-1"
         sodipodi:role="line">0</tspan></text>
    <text
       sodipodi:linespacing="125%"
       id="text4417-3-7-5"
       y="114.9678"
       x="722.53149"
       style="font-size:21.88307762px;font-style:normal;font-weight:normal;line-height:125%;letter-spacing:0px;word-spacing:0px;fill:#000000;fill-opacity:1;stroke:none;font-family:Sans"
       xml:space="preserve"><tspan
         y="114.9678"
         x="722.53149"
         id="tspan4419-2-2-7"
         sodipodi:role="line">1</tspan></text>
    <text
       inkscape:transform-center-y="-4.5273887"
       inkscape:transform-center-x="15.696608"
       sodipodi:linespacing="125%"
       id="text4383-55-8-2-1"
       y="111.93694"
       x="362.57214"
       style="font-size:21.88307762px;font-style:normal;font-weight:normal;line-height:125%;letter-spacing:0px;word-spacing:0px;fill:#000000;fill-opacity:1;stroke:none;font-family:Sans"
       xml:space="preserve"><tspan
         y="111.93694"
         x="362.57214"
         id="tspan4385-0-9-6-5"
         sodipodi:role="line">0</tspan></text>
    <text
       sodipodi:linespacing="125%"
       id="text4383-0"
       y="247.09021"
       x="244.78493"
       style="font-size:21.88307762px;font-style:normal;font-weight:normal;line-height:125%;letter-spacing:0px;word-spacing:0px;fill:#000000;fill-opacity:1;stroke:none;font-family:Sans"
       xml:space="preserve"><tspan
         y="247.09021"
         x="244.78493"
         id="tspan4385-6"
         sodipodi:role="line">0</tspan></text>
    <text
       sodipodi:linespacing="125%"
       id="text4417-8"
       y="240.30548"
       x="381.25061"
       style="font-size:21.88307762px;font-style:normal;font-weight:normal;line-height:125%;letter-spacing:0px;word-spacing:0px;fill:#000000;fill-opacity:1;stroke:none;font-family:Sans"
       xml:space="preserve"><tspan
         y="240.30548"
         x="381.25061"
         id="tspan4419-1"
         sodipodi:role="line">1</tspan></text>
    <text
       sodipodi:linespacing="125%"
       id="text4417-3-9"
       y="235.77519"
       x="536.79016"
       style="font-size:21.88307762px;font-style:normal;font-weight:normal;line-height:125%;letter-spacing:0px;word-spacing:0px;fill:#000000;fill-opacity:1;stroke:none;font-family:Sans"
       xml:space="preserve"><tspan
         y="235.77519"
         x="536.79016"
         id="tspan4419-2-7"
         sodipodi:role="line">1</tspan></text>
    <text
       inkscape:transform-center-y="-4.5273887"
       inkscape:transform-center-x="15.696608"
       sodipodi:linespacing="125%"
       id="text4383-55-8-4"
       y="293.14801"
       x="694.03748"
       style="font-size:21.88307762px;font-style:normal;font-weight:normal;line-height:125%;letter-spacing:0px;word-spacing:0px;fill:#000000;fill-opacity:1;stroke:none;font-family:Sans"
       xml:space="preserve"><tspan
         y="293.14801"
         x="694.03748"
         id="tspan4385-0-9-9"
         sodipodi:role="line">0</tspan></text>
  </g>
  <g
     id="g3907"
     transform="translate(1592.045,6.4946232)">
    <g
       transform="translate(0,33.229546)"
       id="g4-8">
      <rect
         id="rect6-7"
         height="80"
         width="80"
         y="100"
         x="200"
         style="fill:#ffffff" />
      <rect
         id="rect8-5"
         height="80"
         width="80"
         y="100"
         x="200"
         style="fill:none;stroke:#000000;stroke-width:2" />
      <text
         id="text10-0"
         y="143.89999"
         x="240"
         style="font-size:12.79979992px;font-style:normal;font-weight:normal;text-anchor:middle;fill:#000000;font-family:sans-serif"
         font-size="12.7998">
        <tspan
           id="tspan12-1"
           y="143.89999"
           x="240" />
      </text>
    </g>
    <g
       transform="translate(0,33.229546)"
       id="g14-6">
      <rect
         id="rect16-7"
         height="80"
         width="80"
         y="100"
         x="360"
         style="fill:#ffffff" />
      <rect
         id="rect18-1"
         height="80"
         width="80"
         y="100"
         x="360"
         style="fill:none;stroke:#000000;stroke-width:2" />
      <text
         id="text20-0"
         y="143.89999"
         x="400"
         style="font-size:12.79979992px;font-style:normal;font-weight:normal;text-anchor:middle;fill:#000000;font-family:sans-serif"
         font-size="12.7998">
        <tspan
           id="tspan22-8"
           y="143.89999"
           x="400" />
      </text>
    </g>
    <g
       transform="translate(0,33.229546)"
       id="g24-3">
      <rect
         id="rect26-1"
         height="80"
         width="80"
         y="100"
         x="520"
         style="fill:#ffffff" />
      <rect
         id="rect28-9"
         height="80"
         width="80"
         y="100"
         x="520"
         style="fill:none;stroke:#000000;stroke-width:2" />
      <text
         id="text30-3"
         y="143.89999"
         x="560"
         style="font-size:12.79979992px;font-style:normal;font-weight:normal;text-anchor:middle;fill:#000000;font-family:sans-serif"
         font-size="12.7998">
        <tspan
           id="tspan32-1"
           y="143.89999"
           x="560" />
      </text>
    </g>
    <g
       transform="translate(0,33.229546)"
       id="g34-3">
      <rect
         id="rect36-9"
         height="80"
         width="80"
         y="100"
         x="680"
         style="fill:#ffffff" />
      <rect
         id="rect38-7"
         height="80"
         width="80"
         y="100"
         x="680"
         style="fill:none;stroke:#000000;stroke-width:2" />
      <text
         id="text40-6"
         y="143.89999"
         x="720"
         style="font-size:12.79979992px;font-style:normal;font-weight:normal;text-anchor:middle;fill:#000000;font-family:sans-serif"
         font-size="12.7998">
        <tspan
           id="tspan42-9"
           y="143.89999"
           x="720" />
      </text>
    </g>
    <g
       transform="translate(0,33.229546)"
       id="g44-8">
      <rect
         id="rect46-26"
         height="80"
         width="80"
         y="260"
         x="280"
         style="fill:#ffffff" />
      <rect
         id="rect48-2"
         height="80"
         width="80"
         y="260"
         x="280"
         style="fill:none;stroke:#000000;stroke-width:2" />
      <text
         id="text50-7"
         y="303.89999"
         x="320"
         style="font-size:12.79979992px;font-style:normal;font-weight:normal;text-anchor:middle;fill:#000000;font-family:sans-serif"
         font-size="12.7998">
        <tspan
           id="tspan52-2"
           y="303.89999"
           x="320" />
      </text>
    </g>
    <g
       transform="translate(0,33.229546)"
       id="g54-73">
      <rect
         id="rect56-2"
         height="80"
         width="80"
         y="260"
         x="440"
         style="fill:#ffffff" />
      <rect
         id="rect58-9"
         height="80"
         width="80"
         y="260"
         x="440"
         style="fill:none;stroke:#000000;stroke-width:2" />
      <text
         id="text60-5"
         y="303.89999"
         x="480"
         style="font-size:12.79979992px;font-style:normal;font-weight:normal;text-anchor:middle;fill:#000000;font-family:sans-serif"
         font-size="12.7998">
        <tspan
           id="tspan62-0"
           y="303.89999"
           x="480" />
      </text>
    </g>
    <g
       transform="translate(0,33.229546)"
       id="g64-8">
      <rect
         id="rect66-2"
         height="80"
         width="80"
         y="440"
         x="360"
         style="fill:#ffffff" />
      <rect
         id="rect68-3"
         height="80"
         width="80"
         y="440"
         x="360"
         style="fill:none;stroke:#000000;stroke-width:2" />
      <text
         id="text70-9"
         y="483.89999"
         x="400"
         style="font-size:12.79979992px;font-style:normal;font-weight:normal;text-anchor:middle;fill:#000000;font-family:sans-serif"
         font-size="12.7998">
        <tspan
           id="tspan72-8"
           y="483.89999"
           x="400" />
      </text>
    </g>
    <g
       transform="translate(0,33.229546)"
       id="g74-0">
      <rect
         id="rect76-1"
         height="80"
         width="80"
         y="440"
         x="600"
         style="fill:#ffffff" />
      <rect
         id="rect78-1"
         height="80"
         width="80"
         y="440"
         x="600"
         style="fill:none;stroke:#000000;stroke-width:2" />
      <text
         id="text80-1"
         y="483.89999"
         x="640"
         style="font-size:12.79979992px;font-style:normal;font-weight:normal;text-anchor:middle;fill:#000000;font-family:sans-serif"
         font-size="12.7998">
        <tspan
           id="tspan82-6"
           y="483.89999"
           x="640" />
      </text>
    </g>
    <g
       transform="translate(0,33.229546)"
       id="g84-4">
      <polyline
         id="polyline86-2"
         points="240,181.005 240,220.503 300,220.503 300,250.264 "
         style="fill:none;stroke:#000000;stroke-width:2" />
      <polygon
         id="polygon88-2"
         points="300,250.264 305,247.764 300,257.764 295,247.764 "
         style="fill:#000000" />
      <polygon
         id="polygon90-7"
         points="300,250.264 305,247.764 300,257.764 295,247.764 "
         style="fill:none;stroke:#000000;stroke-width:2" />
    </g>
    <g
       transform="translate(0,33.229546)"
       id="g92-5">
      <polyline
         id="polyline94-1"
         points="400,180 400,220 340,220 340,250.264 "
         style="fill:none;stroke:#000000;stroke-width:2" />
      <polygon
         id="polygon96-5"
         points="340,250.264 345,247.764 340,257.764 335,247.764 "
         style="fill:#000000" />
      <polygon
         id="polygon98-4"
         points="340,250.264 345,247.764 340,257.764 335,247.764 "
         style="fill:none;stroke:#000000;stroke-width:2" />
    </g>
    <g
       transform="translate(0,33.229546)"
       id="g100-0">
      <polyline
         id="polyline102-5"
         points="560,180 560,220 500,220 500,250.264 "
         style="fill:none;stroke:#000000;stroke-width:2" />
      <polygon
         id="polygon104-6"
         points="500,250.264 505,247.764 500,257.764 495,247.764 "
         style="fill:#000000" />
      <polygon
         id="polygon106-6"
         points="500,250.264 505,247.764 500,257.764 495,247.764 "
         style="fill:none;stroke:#000000;stroke-width:2" />
    </g>
    <g
       transform="translate(0,33.229546)"
       id="g108-7">
      <polyline
         id="polyline110-5"
         points="400,180 400,220 460,220 460,250.264 "
         style="fill:none;stroke:#000000;stroke-width:2" />
      <polygon
         id="polygon112-1"
         points="460,250.264 465,247.764 460,257.764 455,247.764 "
         style="fill:#000000" />
      <polygon
         id="polygon114-6"
         points="460,250.264 465,247.764 460,257.764 455,247.764 "
         style="fill:none;stroke:#000000;stroke-width:2" />
    </g>
    <g
       transform="translate(0,33.229546)"
       id="g116-1">
      <polyline
         id="polyline118-5"
         points="720,180 720,400 660,400 660,430.264 "
         style="fill:none;stroke:#000000;stroke-width:2" />
      <polygon
         id="polygon120-5"
         points="660,430.264 665,427.764 660,437.764 655,427.764 "
         style="fill:#000000" />
      <polygon
         id="polygon122-6"
         points="660,430.264 665,427.764 660,437.764 655,427.764 "
         style="fill:none;stroke:#000000;stroke-width:2" />
    </g>
    <g
       transform="translate(0,33.229546)"
       id="g124-8">
      <polyline
         id="polyline126-3"
         points="480,340 480,400 620,400 620,430.264 "
         style="fill:none;stroke:#000000;stroke-width:2" />
      <polygon
         id="polygon128-0"
         points="620,430.264 625,427.764 620,437.764 615,427.764 "
         style="fill:#000000" />
      <polygon
         id="polygon130-1"
         points="620,430.264 625,427.764 620,437.764 615,427.764 "
         style="fill:none;stroke:#000000;stroke-width:2" />
    </g>
    <g
       transform="translate(0,33.229546)"
       id="g132-3">
      <polyline
         id="polyline134-03"
         points="480,340 480,400 420,400 420,430.264 "
         style="fill:none;stroke:#000000;stroke-width:2" />
      <polygon
         id="polygon136-6"
         points="420,430.264 425,427.764 420,437.764 415,427.764 "
         style="fill:#000000" />
      <polygon
         id="polygon138-3"
         points="420,430.264 425,427.764 420,437.764 415,427.764 "
         style="fill:none;stroke:#000000;stroke-width:2" />
    </g>
    <g
       transform="translate(0,33.229546)"
       id="g140-6">
      <polyline
         id="polyline142-2"
         points="320,340 320,400 380,400 380,430.264 "
         style="fill:none;stroke:#000000;stroke-width:2" />
      <polygon
         id="polygon144-7"
         points="380,430.264 385,427.764 380,437.764 375,427.764 "
         style="fill:#000000" />
      <polygon
         id="polygon146-8"
         points="380,430.264 385,427.764 380,437.764 375,427.764 "
         style="fill:none;stroke:#000000;stroke-width:2" />
    </g>
    <g
       transform="translate(0,33.229546)"
       id="g148-4">
      <line
         id="line150-5"
         y2="90.263901"
         x2="220"
         y1="60"
         x1="220"
         style="fill:none;stroke:#000000;stroke-width:2" />
      <polygon
         id="polygon152-6"
         points="220,90.2639 225,87.7639 220,97.7639 215,87.7639 "
         style="fill:#000000" />
      <polygon
         id="polygon154-7"
         points="220,90.2639 225,87.7639 220,97.7639 215,87.7639 "
         style="fill:none;stroke:#000000;stroke-width:2" />
    </g>
    <g
       transform="translate(0,33.229546)"
       id="g156-0">
      <line
         id="line158-0"
         y2="90.263901"
         x2="260"
         y1="60"
         x1="260"
         style="fill:none;stroke:#000000;stroke-width:2" />
      <polygon
         id="polygon160-7"
         points="260,90.2639 265,87.7639 260,97.7639 255,87.7639 "
         style="fill:#000000" />
      <polygon
         id="polygon162-5"
         points="260,90.2639 265,87.7639 260,97.7639 255,87.7639 "
         style="fill:none;stroke:#000000;stroke-width:2" />
    </g>
    <g
       transform="translate(0,33.229546)"
       id="g164-8">
      <line
         id="line166-6"
         y2="90.263901"
         x2="380"
         y1="60"
         x1="380"
         style="fill:none;stroke:#000000;stroke-width:2" />
      <polygon
         id="polygon168-5"
         points="380,90.2639 385,87.7639 380,97.7639 375,87.7639 "
         style="fill:#000000" />
      <polygon
         id="polygon170-5"
         points="380,90.2639 385,87.7639 380,97.7639 375,87.7639 "
         style="fill:none;stroke:#000000;stroke-width:2" />
    </g>
    <g
       transform="translate(0,33.229546)"
       id="g172-91">
      <line
         id="line174-6"
         y2="90.263901"
         x2="420"
         y1="60"
         x1="420"
         style="fill:none;stroke:#000000;stroke-width:2" />
      <polygon
         id="polygon176-6"
         points="420,90.2639 425,87.7639 420,97.7639 415,87.7639 "
         style="fill:#000000" />
      <polygon
         id="polygon178-9"
         points="420,90.2639 425,87.7639 420,97.7639 415,87.7639 "
         style="fill:none;stroke:#000000;stroke-width:2" />
    </g>
    <g
       transform="translate(0,33.229546)"
       id="g180-4">
      <line
         id="line182-4"
         y2="90.263901"
         x2="540"
         y1="60"
         x1="540"
         style="fill:none;stroke:#000000;stroke-width:2" />
      <polygon
         id="polygon184-4"
         points="540,90.2639 545,87.7639 540,97.7639 535,87.7639 "
         style="fill:#000000" />
      <polygon
         id="polygon186-4"
         points="540,90.2639 545,87.7639 540,97.7639 535,87.7639 "
         style="fill:none;stroke:#000000;stroke-width:2" />
    </g>
    <g
       transform="translate(0,33.229546)"
       id="g188-5">
      <line
         id="line190-9"
         y2="90.263901"
         x2="580"
         y1="60"
         x1="580"
         style="fill:none;stroke:#000000;stroke-width:2" />
      <polygon
         id="polygon192-7"
         points="580,90.2639 585,87.7639 580,97.7639 575,87.7639 "
         style="fill:#000000" />
      <polygon
         id="polygon194-1"
         points="580,90.2639 585,87.7639 580,97.7639 575,87.7639 "
         style="fill:none;stroke:#000000;stroke-width:2" />
    </g>
    <g
       transform="translate(0,33.229546)"
       id="g196-50">
      <line
         id="line198-7"
         y2="90.263901"
         x2="700"
         y1="60"
         x1="700"
         style="fill:none;stroke:#000000;stroke-width:2" />
      <polygon
         id="polygon200-0"
         points="700,90.2639 705,87.7639 700,97.7639 695,87.7639 "
         style="fill:#000000" />
      <polygon
         id="polygon202-8"
         points="700,90.2639 705,87.7639 700,97.7639 695,87.7639 "
         style="fill:none;stroke:#000000;stroke-width:2" />
    </g>
    <g
       transform="translate(0,33.229546)"
       id="g204-6">
      <line
         id="line206-4"
         y2="90.263901"
         x2="740"
         y1="60"
         x1="740"
         style="fill:none;stroke:#000000;stroke-width:2" />
      <polygon
         id="polygon208-5"
         points="740,90.2639 745,87.7639 740,97.7639 735,87.7639 "
         style="fill:#000000" />
      <polygon
         id="polygon210-4"
         points="740,90.2639 745,87.7639 740,97.7639 735,87.7639 "
         style="fill:none;stroke:#000000;stroke-width:2" />
    </g>
    <g
       transform="translate(0,33.229546)"
       id="g212-4">
      <line
         id="line214-5"
         y2="550.26398"
         x2="400"
         y1="520"
         x1="400"
         style="fill:none;stroke:#000000;stroke-width:2" />
      <polygon
         id="polygon216-4"
         points="400,550.264 405,547.764 400,557.764 395,547.764 "
         style="fill:#000000" />
      <polygon
         id="polygon218-3"
         points="400,550.264 405,547.764 400,557.764 395,547.764 "
         style="fill:none;stroke:#000000;stroke-width:2" />
    </g>
    <g
       transform="translate(0,33.229546)"
       id="g220-2">
      <line
         id="line222-2"
         y2="550.26398"
         x2="640"
         y1="520.97699"
         x1="640"
         style="fill:none;stroke:#000000;stroke-width:2" />
      <polygon
         id="polygon224-1"
         points="640,550.264 645,547.764 640,557.764 635,547.764 "
         style="fill:#000000" />
      <polygon
         id="polygon226-9"
         points="640,550.264 645,547.764 640,557.764 635,547.764 "
         style="fill:none;stroke:#000000;stroke-width:2" />
    </g>
    <text
       sodipodi:linespacing="125%"
       id="text3209-7"
       y="176.42392"
       x="215.53407"
       style="font-size:21.88307762px;font-style:normal;font-weight:normal;line-height:125%;letter-spacing:0px;word-spacing:0px;fill:#000000;fill-opacity:1;stroke:none;font-family:Sans"
       xml:space="preserve"><tspan
         y="176.42392"
         x="215.53407"
         id="tspan3211-0"
         sodipodi:role="line">XOR</tspan></text>
    <text
       sodipodi:linespacing="125%"
       id="text3209-9-36"
       y="176.83919"
       x="382.77936"
       style="font-size:21.88307762px;font-style:normal;font-weight:normal;line-height:125%;letter-spacing:0px;word-spacing:0px;fill:#000000;fill-opacity:1;stroke:none;font-family:Sans"
       xml:space="preserve"><tspan
         y="176.83919"
         x="382.77936"
         id="tspan3211-1-92"
         sodipodi:role="line">OR</tspan></text>
    <text
       sodipodi:linespacing="125%"
       id="text3209-9-3-0"
       y="178.34927"
       x="543.32135"
       style="font-size:21.88307762px;font-style:normal;font-weight:normal;line-height:125%;letter-spacing:0px;word-spacing:0px;fill:#000000;fill-opacity:1;stroke:none;font-family:Sans"
       xml:space="preserve"><tspan
         y="178.34927"
         x="543.32135"
         id="tspan3211-1-4-3"
         sodipodi:role="line">OR</tspan></text>
    <text
       sodipodi:linespacing="125%"
       id="text3209-9-3-4-8"
       y="179.85936"
       x="696.5957"
       style="font-size:21.88307762px;font-style:normal;font-weight:normal;line-height:125%;letter-spacing:0px;word-spacing:0px;fill:#000000;fill-opacity:1;stroke:none;font-family:Sans"
       xml:space="preserve"><tspan
         y="179.85936"
         x="696.5957"
         id="tspan3211-1-4-4-71"
         sodipodi:role="line">AND</tspan></text>
    <text
       sodipodi:linespacing="125%"
       id="text3209-9-3-4-1-84"
       y="337.67471"
       x="296.20187"
       style="font-size:21.88307762px;font-style:normal;font-weight:normal;line-height:125%;letter-spacing:0px;word-spacing:0px;fill:#000000;fill-opacity:1;stroke:none;font-family:Sans"
       xml:space="preserve"><tspan
         y="337.67471"
         x="296.20187"
         id="tspan3211-1-4-4-6-2"
         sodipodi:role="line">AND</tspan></text>
    <text
       sodipodi:linespacing="125%"
       id="text3209-9-3-4-3-36"
       y="339.93988"
       x="456.27167"
       style="font-size:21.88307762px;font-style:normal;font-weight:normal;line-height:125%;letter-spacing:0px;word-spacing:0px;fill:#000000;fill-opacity:1;stroke:none;font-family:Sans"
       xml:space="preserve"><tspan
         y="339.93988"
         x="456.27167"
         id="tspan3211-1-4-4-7-1"
         sodipodi:role="line">XOR</tspan></text>
    <text
       sodipodi:linespacing="125%"
       id="text3209-9-3-4-6-3"
       y="518.8855"
       x="376.99182"
       style="font-size:21.88307762px;font-style:normal;font-weight:normal;line-height:125%;letter-spacing:0px;word-spacing:0px;fill:#000000;fill-opacity:1;stroke:none;font-family:Sans"
       xml:space="preserve"><tspan
         y="518.8855"
         x="376.99182"
         id="tspan3211-1-4-4-4-4"
         sodipodi:role="line">AND</tspan></text>
    <text
       sodipodi:linespacing="125%"
       id="text3209-9-3-4-4-70"
       y="518.13049"
       x="620.87177"
       style="font-size:21.88307762px;font-style:normal;font-weight:normal;line-height:125%;letter-spacing:0px;word-spacing:0px;fill:#000000;fill-opacity:1;stroke:none;font-family:Sans"
       xml:space="preserve"><tspan
         y="518.13049"
         x="620.87177"
         id="tspan3211-1-4-4-1-1"
         sodipodi:role="line">OR</tspan></text>
    <text
       sodipodi:linespacing="125%"
       id="text4383-1"
       y="113.03175"
       x="200.3978"
       style="font-size:21.88307762px;font-style:normal;font-weight:normal;line-height:125%;letter-spacing:0px;word-spacing:0px;fill:#000000;fill-opacity:1;stroke:none;font-family:Sans"
       xml:space="preserve"><tspan
         y="113.03175"
         x="200.3978"
         id="tspan4385-46"
         sodipodi:role="line">0</tspan></text>
    <text
       sodipodi:linespacing="125%"
       id="text4383-5-7"
       y="114.20207"
       x="241.76476"
       style="font-size:21.88307762px;font-style:normal;font-weight:normal;line-height:125%;letter-spacing:0px;word-spacing:0px;fill:#000000;fill-opacity:1;stroke:none;font-family:Sans"
       xml:space="preserve"><tspan
         y="114.20207"
         x="241.76476"
         id="tspan4385-4-9"
         sodipodi:role="line">0</tspan></text>
    <text
       inkscape:transform-center-y="-15.126953"
       inkscape:transform-center-x="52.445561"
       sodipodi:linespacing="125%"
       id="text4383-55-1"
       y="117.97729"
       x="562.65942"
       style="font-size:21.88307762px;font-style:normal;font-weight:normal;line-height:125%;letter-spacing:0px;word-spacing:0px;fill:#000000;fill-opacity:1;stroke:none;font-family:Sans"
       xml:space="preserve"><tspan
         y="117.97729"
         x="562.65942"
         id="tspan4385-0-1"
         sodipodi:role="line">0</tspan></text>
    <text
       sodipodi:linespacing="125%"
       id="text4417-1"
       y="113.7868"
       x="401.99515"
       style="font-size:21.88307762px;font-style:normal;font-weight:normal;line-height:125%;letter-spacing:0px;word-spacing:0px;fill:#000000;fill-opacity:1;stroke:none;font-family:Sans"
       xml:space="preserve"><tspan
         y="113.7868"
         x="401.99515"
         id="tspan4419-21"
         sodipodi:role="line">1</tspan></text>
    <text
       sodipodi:linespacing="125%"
       id="text4417-3-1"
       y="115.72284"
       x="521.68921"
       style="font-size:21.88307762px;font-style:normal;font-weight:normal;line-height:125%;letter-spacing:0px;word-spacing:0px;fill:#000000;fill-opacity:1;stroke:none;font-family:Sans"
       xml:space="preserve"><tspan
         y="115.72284"
         x="521.68921"
         id="tspan4419-2-5"
         sodipodi:role="line">1</tspan></text>
    <text
       inkscape:transform-center-y="-8.2756038"
       inkscape:transform-center-x="28.691763"
       sodipodi:linespacing="125%"
       id="text4383-55-8-7"
       y="114.20207"
       x="679.69153"
       style="font-size:21.88307762px;font-style:normal;font-weight:normal;line-height:125%;letter-spacing:0px;word-spacing:0px;fill:#000000;fill-opacity:1;stroke:none;font-family:Sans"
       xml:space="preserve"><tspan
         y="114.20207"
         x="679.69153"
         id="tspan4385-0-9-0"
         sodipodi:role="line">0</tspan></text>
    <text
       sodipodi:linespacing="125%"
       id="text4417-3-7-9"
       y="114.9678"
       x="722.53149"
       style="font-size:21.88307762px;font-style:normal;font-weight:normal;line-height:125%;letter-spacing:0px;word-spacing:0px;fill:#000000;fill-opacity:1;stroke:none;font-family:Sans"
       xml:space="preserve"><tspan
         y="114.9678"
         x="722.53149"
         id="tspan4419-2-2-9"
         sodipodi:role="line">1</tspan></text>
    <text
       inkscape:transform-center-y="-4.5273887"
       inkscape:transform-center-x="15.696608"
       sodipodi:linespacing="125%"
       id="text4383-55-8-2-6"
       y="111.93694"
       x="362.57214"
       style="font-size:21.88307762px;font-style:normal;font-weight:normal;line-height:125%;letter-spacing:0px;word-spacing:0px;fill:#000000;fill-opacity:1;stroke:none;font-family:Sans"
       xml:space="preserve"><tspan
         y="111.93694"
         x="362.57214"
         id="tspan4385-0-9-6-8"
         sodipodi:role="line">0</tspan></text>
    <text
       sodipodi:linespacing="125%"
       id="text4383-0-69"
       y="247.09021"
       x="244.78493"
       style="font-size:21.88307762px;font-style:normal;font-weight:normal;line-height:125%;letter-spacing:0px;word-spacing:0px;fill:#000000;fill-opacity:1;stroke:none;font-family:Sans"
       xml:space="preserve"><tspan
         y="247.09021"
         x="244.78493"
         id="tspan4385-6-82"
         sodipodi:role="line">0</tspan></text>
    <text
       sodipodi:linespacing="125%"
       id="text4417-8-1"
       y="240.30548"
       x="381.25061"
       style="font-size:21.88307762px;font-style:normal;font-weight:normal;line-height:125%;letter-spacing:0px;word-spacing:0px;fill:#000000;fill-opacity:1;stroke:none;font-family:Sans"
       xml:space="preserve"><tspan
         y="240.30548"
         x="381.25061"
         id="tspan4419-1-3"
         sodipodi:role="line">1</tspan></text>
    <text
       sodipodi:linespacing="125%"
       id="text4417-3-9-9"
       y="235.77519"
       x="536.79016"
       style="font-size:21.88307762px;font-style:normal;font-weight:normal;line-height:125%;letter-spacing:0px;word-spacing:0px;fill:#000000;fill-opacity:1;stroke:none;font-family:Sans"
       xml:space="preserve"><tspan
         y="235.77519"
         x="536.79016"
         id="tspan4419-2-7-2"
         sodipodi:role="line">1</tspan></text>
    <text
       inkscape:transform-center-y="-4.5273887"
       inkscape:transform-center-x="15.696608"
       sodipodi:linespacing="125%"
       id="text4383-55-8-4-95"
       y="293.14801"
       x="694.03748"
       style="font-size:21.88307762px;font-style:normal;font-weight:normal;line-height:125%;letter-spacing:0px;word-spacing:0px;fill:#000000;fill-opacity:1;stroke:none;font-family:Sans"
       xml:space="preserve"><tspan
         y="293.14801"
         x="694.03748"
         id="tspan4385-0-9-9-2"
         sodipodi:role="line">0</tspan></text>
    <text
       inkscape:transform-center-y="-2.4768267"
       inkscape:transform-center-x="8.5872588"
       sodipodi:linespacing="125%"
       id="text4383-55-8-4-2"
       y="413.95541"
       x="458.46301"
       style="font-size:21.88307762px;font-style:normal;font-weight:normal;line-height:125%;letter-spacing:0px;word-spacing:0px;fill:#000000;fill-opacity:1;stroke:none;font-family:Sans"
       xml:space="preserve"><tspan
         y="413.95541"
         x="458.46301"
         id="tspan4385-0-9-9-5"
         sodipodi:role="line">0</tspan></text>
    <text
       sodipodi:linespacing="125%"
       id="text4383-0-6"
       y="413.20038"
       x="297.63815"
       style="font-size:21.88307762px;font-style:normal;font-weight:normal;line-height:125%;letter-spacing:0px;word-spacing:0px;fill:#000000;fill-opacity:1;stroke:none;font-family:Sans"
       xml:space="preserve"><tspan
         y="413.20038"
         x="297.63815"
         id="tspan4385-6-8"
         sodipodi:role="line">0</tspan></text>
    <text
       inkscape:transform-center-y="-2.4768267"
       inkscape:transform-center-x="8.5872588"
       sodipodi:linespacing="125%"
       id="text4383-55-8-4-9"
       y="577.80042"
       x="620.04297"
       style="font-size:21.88307762px;font-style:normal;font-weight:normal;line-height:125%;letter-spacing:0px;word-spacing:0px;fill:#000000;fill-opacity:1;stroke:none;font-family:Sans"
       xml:space="preserve"><tspan
         y="577.80042"
         x="620.04297"
         id="tspan4385-0-9-9-4"
         sodipodi:role="line">0</tspan></text>
    <text
       inkscape:transform-center-y="-1.3550115"
       inkscape:transform-center-x="4.6978979"
       sodipodi:linespacing="125%"
       id="text4383-55-8-4-9-2"
       y="577.80042"
       x="380.69324"
       style="font-size:21.88307762px;font-style:normal;font-weight:normal;line-height:125%;letter-spacing:0px;word-spacing:0px;fill:#000000;fill-opacity:1;stroke:none;font-family:Sans"
       xml:space="preserve"><tspan
         y="577.80042"
         x="380.69324"
         id="tspan4385-0-9-9-4-8"
         sodipodi:role="line">0</tspan></text>
  </g>
  <path
     sodipodi:nodetypes="cc"
     inkscape:connector-curvature="0"
     id="path3209"
     d="m 746.20075,325.19974 237.05085,0"
     style="fill:none;stroke:#000000;stroke-width:5.47076941;stroke-linecap:butt;stroke-linejoin:miter;stroke-miterlimit:4;stroke-opacity:1;stroke-dasharray:none;marker-end:url(#Arrow1Lend)" />
  <path
     sodipodi:nodetypes="cc"
     inkscape:connector-curvature="0"
     id="path3209-6"
     d="m 1507.9675,322.17955 237.0509,0"
     style="fill:none;stroke:#000000;stroke-width:5.47076941;stroke-linecap:butt;stroke-linejoin:miter;stroke-miterlimit:4;stroke-opacity:1;stroke-dasharray:none;marker-end:url(#Arrow1Lend)" />
</svg>
