FT, P2S1OT, P2S1, P1S1, P2S2, P1S2OT, P1S2
0.358684, 0.107514, 0.152905, 0.045930, 0.093854, 0.045575, 0.065995
0.360391, 0.101245, 0.146564, 0.045789, 0.097064, 0.049857, 0.070974
0.363012, 0.100493, 0.145912, 0.045946, 0.098832, 0.050634, 0.072322
0.359379, 0.099342, 0.144608, 0.045836, 0.097465, 0.049608, 0.071470
0.352955, 0.097650, 0.143024, 0.045606, 0.093609, 0.047901, 0.070716
0.391601, 0.123865, 0.169206, 0.048650, 0.101700, 0.049598, 0.072045
0.364960, 0.091357, 0.141264, 0.048556, 0.101336, 0.049883, 0.073804
0.361536, 0.102027, 0.151275, 0.046415, 0.094418, 0.049462, 0.069428
0.351196, 0.092306, 0.137647, 0.045851, 0.097855, 0.049453, 0.069843
0.354765, 0.095669, 0.140993, 0.045835, 0.101490, 0.046001, 0.066447
0.380222, 0.121156, 0.167473, 0.046809, 0.095735, 0.048530, 0.070205
0.345145, 0.093179, 0.138506, 0.045804, 0.094065, 0.045721, 0.066770
0.350039, 0.093614, 0.142361, 0.048530, 0.093395, 0.045716, 0.065753
0.343070, 0.092138, 0.137467, 0.045951, 0.093645, 0.045619, 0.066007
0.360138, 0.097293, 0.146133, 0.049880, 0.098534, 0.045649, 0.065591
0.366025, 0.114432, 0.159765, 0.045645, 0.093557, 0.045555, 0.067058
0.345331, 0.089324, 0.134664, 0.045825, 0.093686, 0.049911, 0.071156
0.361194, 0.095944, 0.146124, 0.046155, 0.100640, 0.048395, 0.068275
0.355597, 0.092324, 0.137643, 0.048324, 0.097429, 0.048579, 0.072201
0.359704, 0.092842, 0.140611, 0.048103, 0.101612, 0.046247, 0.069378
0.370931, 0.118943, 0.164370, 0.045888, 0.093496, 0.045611, 0.067177
0.357321, 0.091934, 0.137254, 0.047287, 0.099724, 0.050591, 0.073056
0.353887, 0.093656, 0.138977, 0.048695, 0.097772, 0.048545, 0.068443
0.349253, 0.095087, 0.140428, 0.048755, 0.094089, 0.045579, 0.065981
0.354311, 0.095519, 0.140778, 0.045797, 0.097644, 0.047093, 0.070092
0.381178, 0.118372, 0.166309, 0.050502, 0.097196, 0.045634, 0.067171
0.357533, 0.093265, 0.138609, 0.045833, 0.101306, 0.049020, 0.071785
0.355826, 0.098366, 0.143731, 0.045820, 0.096449, 0.049815, 0.069826
0.346770, 0.091981, 0.137293, 0.045850, 0.093718, 0.046433, 0.069909
0.343461, 0.092882, 0.138272, 0.045755, 0.093812, 0.045668, 0.065622
0.377558, 0.114788, 0.164364, 0.045948, 0.097352, 0.048299, 0.069894
0.347719, 0.092622, 0.137992, 0.049785, 0.093140, 0.045615, 0.066802
0.356049, 0.093571, 0.138962, 0.050109, 0.098727, 0.048387, 0.068251
0.356266, 0.096666, 0.142079, 0.045829, 0.094629, 0.051662, 0.073729
0.363281, 0.093333, 0.144284, 0.048944, 0.101711, 0.045653, 0.068342
0.380590, 0.114642, 0.161937, 0.048238, 0.098520, 0.047102, 0.071895
0.354984, 0.089764, 0.137572, 0.046266, 0.099165, 0.047283, 0.071981
0.356206, 0.100617, 0.146774, 0.045678, 0.093603, 0.047860, 0.070151
0.359791, 0.094858, 0.142897, 0.048667, 0.099369, 0.047420, 0.068858
0.356297, 0.094735, 0.140024, 0.045769, 0.099835, 0.048675, 0.070669
0.371417, 0.117394, 0.164296, 0.045874, 0.094116, 0.045620, 0.067131
0.352034, 0.089783, 0.137964, 0.046851, 0.100393, 0.045715, 0.066826
0.350141, 0.093434, 0.138783, 0.045944, 0.097054, 0.048519, 0.068360
0.345167, 0.094063, 0.139440, 0.045732, 0.094028, 0.045655, 0.065967
0.359164, 0.093547, 0.141681, 0.050034, 0.095844, 0.051635, 0.071605
0.389663, 0.121647, 0.169955, 0.048432, 0.098445, 0.048940, 0.072831
0.353497, 0.091486, 0.136857, 0.046025, 0.101116, 0.045641, 0.069499
0.356993, 0.097977, 0.143348, 0.045801, 0.098763, 0.046796, 0.069081
0.356375, 0.096984, 0.142339, 0.045767, 0.098191, 0.045661, 0.070078
0.346150, 0.095893, 0.141120, 0.045931, 0.093522, 0.045611, 0.065577
0.375358, 0.114673, 0.164178, 0.045856, 0.098221, 0.045560, 0.067103
0.360214, 0.091801, 0.141388, 0.045816, 0.096715, 0.053285, 0.076295
0.358093, 0.094885, 0.140749, 0.048146, 0.100722, 0.045694, 0.068476
0.360678, 0.092504, 0.140088, 0.048452, 0.100352, 0.050743, 0.071786
0.359618, 0.095375, 0.140828, 0.048759, 0.099904, 0.050134, 0.070127
0.383452, 0.122509, 0.171622, 0.049098, 0.095318, 0.045806, 0.067414
0.359184, 0.091302, 0.139107, 0.048265, 0.098165, 0.052367, 0.073647
0.353937, 0.093992, 0.139311, 0.046641, 0.100942, 0.047172, 0.067043
0.357907, 0.098624, 0.143986, 0.045998, 0.097082, 0.050280, 0.070841
0.361975, 0.094948, 0.144325, 0.045794, 0.100929, 0.050644, 0.070927
0.381524, 0.119339, 0.167312, 0.048742, 0.098002, 0.045711, 0.067468
0.357989, 0.092667, 0.140129, 0.048650, 0.098154, 0.049062, 0.071056
0.347412, 0.093366, 0.138677, 0.045747, 0.094547, 0.047958, 0.068441
0.354162, 0.092343, 0.139155, 0.048265, 0.097713, 0.048790, 0.069029
0.348667, 0.092619, 0.137980, 0.045958, 0.093963, 0.048706, 0.070766
0.372681, 0.116234, 0.163318, 0.045905, 0.096186, 0.045579, 0.067272
0.358601, 0.095951, 0.143851, 0.045826, 0.097552, 0.047902, 0.071372
0.356080, 0.096838, 0.142172, 0.048131, 0.096150, 0.045718, 0.069627
0.369240, 0.096142, 0.141434, 0.052375, 0.103785, 0.050890, 0.071646
0.357216, 0.093168, 0.141423, 0.050241, 0.098693, 0.046922, 0.066859
0.390892, 0.122021, 0.171453, 0.045822, 0.101159, 0.048220, 0.072458
0.360628, 0.093139, 0.141402, 0.050249, 0.098585, 0.048879, 0.070392
0.348772, 0.094624, 0.139989, 0.045822, 0.093814, 0.049284, 0.069147
0.349600, 0.092272, 0.141516, 0.045845, 0.093546, 0.046078, 0.068693
0.366912, 0.097172, 0.143189, 0.053510, 0.099770, 0.048866, 0.070443
0.386126, 0.120951, 0.168907, 0.047510, 0.099617, 0.047467, 0.070092
0.361795, 0.091616, 0.138348, 0.048333, 0.102380, 0.051625, 0.072734
0.364353, 0.095916, 0.143189, 0.048656, 0.103205, 0.049317, 0.069303
0.363306, 0.096449, 0.145292, 0.048441, 0.098188, 0.050798, 0.071385
0.352452, 0.092985, 0.138291, 0.049814, 0.097895, 0.046510, 0.066452
0.388110, 0.119452, 0.166839, 0.048553, 0.100290, 0.050053, 0.072428
0.358254, 0.089481, 0.137759, 0.050327, 0.098559, 0.049701, 0.071609
0.358510, 0.094917, 0.142789, 0.046511, 0.101926, 0.047375, 0.067284
0.352682, 0.092138, 0.138952, 0.053935, 0.093954, 0.045575, 0.065841
0.355999, 0.092729, 0.138007, 0.053354, 0.095971, 0.048426, 0.068667
0.392836, 0.125210, 0.172602, 0.047290, 0.102027, 0.047592, 0.070917
0.345043, 0.092331, 0.137665, 0.045788, 0.094701, 0.045582, 0.066889
0.357309, 0.094678, 0.140137, 0.049844, 0.097215, 0.048190, 0.070113
0.361319, 0.094683, 0.143023, 0.049061, 0.103331, 0.045609, 0.065904
0.355462, 0.092712, 0.140467, 0.047905, 0.099315, 0.045652, 0.067775
0.393511, 0.123115, 0.168448, 0.045954, 0.104166, 0.049357, 0.074943
0.369157, 0.098276, 0.146843, 0.048745, 0.098552, 0.053556, 0.075017
0.362499, 0.093548, 0.143361, 0.047966, 0.100686, 0.050079, 0.070486
0.356341, 0.096400, 0.141771, 0.045936, 0.101424, 0.046948, 0.067210
0.355996, 0.092910, 0.139250, 0.045744, 0.102502, 0.048553, 0.068500
0.384426, 0.117323, 0.163595, 0.049754, 0.096951, 0.050585, 0.074126
0.352143, 0.092962, 0.139826, 0.045896, 0.096667, 0.048563, 0.069754
0.360039, 0.099269, 0.144607, 0.048041, 0.096762, 0.050010, 0.070629
0.361382, 0.092073, 0.141805, 0.048053, 0.100864, 0.049500, 0.070660
0.349092, 0.092756, 0.139203, 0.047756, 0.093908, 0.047782, 0.068225
